<?xml version="1.0" encoding="UTF-8" standalone="no"?>
<svg
   xmlns:dc="http://purl.org/dc/elements/1.1/"
   xmlns:cc="http://creativecommons.org/ns#"
   xmlns:rdf="http://www.w3.org/1999/02/22-rdf-syntax-ns#"
   xmlns:svg="http://www.w3.org/2000/svg"
   xmlns="http://www.w3.org/2000/svg"
   xmlns:sodipodi="http://sodipodi.sourceforge.net/DTD/sodipodi-0.dtd"
   xmlns:inkscape="http://www.inkscape.org/namespaces/inkscape"
   id="svg115"
   version="1.2"
   viewBox="0 0 793.23001 198"
   height="264"
   width="1057.64"
   sodipodi:docname="airbus-region.svg"
   inkscape:version="0.92.4 (5da689c313, 2019-01-14)">
  <sodipodi:namedview
     pagecolor="#ffffff"
     bordercolor="#666666"
     borderopacity="1"
     objecttolerance="10"
     gridtolerance="10"
     guidetolerance="10"
     inkscape:pageopacity="0"
     inkscape:pageshadow="2"
     inkscape:window-width="1054"
     inkscape:window-height="1063"
     id="namedview60"
     showgrid="false"
     inkscape:zoom="0.56159911"
     inkscape:cx="223.02957"
     inkscape:cy="-311.97129"
     inkscape:window-x="0"
     inkscape:window-y="15"
     inkscape:window-maximized="0"
     inkscape:current-layer="svg115" />
  <metadata
     id="metadata121">
    <rdf:RDF>
      <cc:Work
         rdf:about="">
        <dc:format>image/svg+xml</dc:format>
        <dc:type
           rdf:resource="http://purl.org/dc/dcmitype/StillImage" />
        <dc:title />
      </cc:Work>
    </rdf:RDF>
  </metadata>
  <defs
     id="defs119" />
  <path
     style="fill:#c2112e;fill-opacity:1;fill-rule:nonzero;stroke:none"
     d="M 602.7617,94.691406 V 41.511719 c 0,-3.015625 -2.4531,-5.472657 -5.4687,-5.472657 h -91.38675 c -3.00781,0 -5.45703,2.449219 -5.45703,5.460938 v 53.183594 c -0.0156,0.480468 -0.0469,1.960937 0.11328,4.210937 0.16406,2.367189 0.57812,6.097659 1.60156,10.449219 0.98047,4.15234 2.34766,8.19141 4.07031,12.00781 0.3125,0.67969 0.62891,1.36328 0.95704,2.02344 0.9375,1.89844 1.99218,3.77734 3.13671,5.58594 2.125,3.36328 4.57813,6.51172 7.28125,9.35156 0.53516,0.5625 1.07032,1.10937 1.60157,1.64453 1.70703,1.71875 3.44922,3.36328 5.17968,4.88281 1.53907,1.34766 3.1211,2.65235 4.70704,3.875 1.1875,0.91016 2.375,1.77735 3.54687,2.58594 8.87497,6.11328 15.64847,8.07422 17.50777,8.52734 l 1.4688,0.29688 1.4258,-0.29688 c 1.3242,-0.32031 4.9375,-1.34765 9.9219,-3.9414 3.414,-1.77344 6.8828,-3.97266 10.3007,-6.53906 4.2032,-3.14844 8.3516,-6.85938 12.3282,-11.03125 4.1796,-4.38282 7.6836,-9.40625 10.4218,-14.94141 2.1758,-4.40234 3.8672,-9.125 5.0235,-14.03125 1.0273,-4.35156 1.4414,-8.08203 1.6093,-10.453125 0.1563,-2.304687 0.1211,-3.777344 0.1094,-4.199219"
     id="path2" />
  <path
     style="fill:#ffffff;fill-opacity:1;fill-rule:nonzero;stroke:none"
     d="m 534.73047,132.80469 c -0.97266,-3.36719 -1.97656,-6.84766 -1.91797,-10.54688 0.0352,-2.44531 0.80078,-4.75 1.53906,-6.98047 0.72654,-2.17968 1.47264,-4.43359 1.55864,-6.84375 0.121,-3.6289 -0.7344,-6.21875 -1.56254,-8.726559 -0.66797,-1.996093 -1.35157,-4.066406 -1.53516,-6.679687 -0.26563,-3.652344 0.74609,-7.191406 1.72266,-10.617188 0.92184,-3.214844 1.78904,-6.25 1.68354,-9.355468 -0.082,-2.320313 -0.9023,-4.550782 -1.69917,-6.707032 -0.75,-2.039062 -1.52734,-4.144531 -1.70703,-6.375 -0.35156,-4.191406 0.73828,-7.53125 1.78906,-10.765625 0.78514,-2.402343 1.52734,-4.675781 1.69924,-7.234375 h 58.2851 c 1.2579,0 2.2813,1.019532 2.2813,2.277344 v 50.597656 c 0.01,0.226563 0.207,5.652344 -1.5625,13.144534 -1.0547,4.47265 -2.5899,8.76562 -4.5664,12.76172 -2.4649,4.98828 -5.625,9.51953 -9.3985,13.47656 -3.746,3.92969 -7.6406,7.41797 -11.5742,10.36328 -3.1601,2.37109 -6.3515,4.39844 -9.4726,6.02344 -4.4883,2.33203 -7.5313,3.1914 -8.6914,3.46093 -1.168,-0.27343 -4.2344,-1.14062 -8.7305,-3.48828 -2.3242,-1.21093 -4.6914,-2.64843 -7.043,-4.27343 0.418,-1.19532 0.6446,-2.27735 0.6914,-3.30079 0.1641,-3.44531 -0.7851,-6.73437 -1.78903,-10.21093 m -9.82422,-16.28906 c 0.6875,-2 1.40234,-4.06641 1.55469,-6.15235 0.33593,-4.44531 -0.63672,-7.42969 -1.58203,-10.3164 -0.72657,-2.218755 -1.41407,-4.316411 -1.51172,-7.007818 -0.12891,-3.515624 0.84375,-6.988281 1.77734,-10.34375 1.00781,-3.605468 1.95703,-7.011718 1.63672,-10.425781 -0.21484,-2.203125 -1.00391,-4.3125 -1.76563,-6.351562 -0.8164,-2.179688 -1.58593,-4.242188 -1.64843,-6.3125 -0.0703,-2.378907 0.73828,-5.074219 1.59375,-7.933594 0.93359,-3.117187 1.89843,-6.335937 1.96875,-9.699219 h 4.39453 c -0.10547,2.511719 -0.86719,5.039063 -1.66797,7.707032 -1.06641,3.539062 -2.17188,7.199218 -1.78516,11.117187 0.21094,2.109375 0.9961,4.21875 1.76172,6.253906 0.79297,2.117188 1.53906,4.117188 1.64453,6.03125 0.16797,3.042969 -0.70312,6.027344 -1.63281,9.1875 -1.08984,3.730469 -2.22266,7.589844 -1.77344,11.964844 0.22657,2.199219 0.92578,4.210937 1.60157,6.148435 0.72265,2.08203 1.40625,4.04297 1.49609,6.12891 0.13281,3.02344 -0.71484,5.67187 -1.53125,8.23437 -0.78125,2.45704 -1.59375,5 -1.56641,7.89063 0.0312,3.52734 1.03516,7.01953 2.00391,10.39453 1.03516,3.60156 2.01562,7.01172 1.73047,10.14062 -1.4375,-1.14062 -2.8711,-2.35546 -4.26953,-3.61718 l -0.53125,-0.48828 c -0.38672,-2.32813 -1.04297,-4.6211 -1.67578,-6.83594 -0.9336,-3.25781 -1.81641,-6.33203 -1.76172,-9.19922 0.0391,-2.17187 0.80078,-4.37891 1.53906,-6.51562 M 508.68359,62.722656 c 0.21094,2.105469 1,4.207032 1.76172,6.246094 0.79297,2.113281 1.54297,4.113281 1.64453,6.035156 0.17188,3.039063 -0.70312,6.027344 -1.6289,9.1875 -1.09375,3.730469 -2.22266,7.589844 -1.77735,11.960938 0.22657,2.199218 0.92578,4.207036 1.60157,6.144536 0.72265,2.08593 1.41015,4.05078 1.5,6.14062 0.12109,2.79688 -0.59375,5.27734 -1.35157,7.66406 -1.03125,-2.64453 -1.8789,-5.35547 -2.51953,-8.0664 -1.78125,-7.53907 -1.57031,-13.171879 -1.57031,-13.246098 V 44.25 c 0,-1.257812 1.02344,-2.277344 2.27734,-2.277344 h 3.46875 c 0.35157,3.136719 -0.60156,6.292969 -1.61328,9.632813 -1.07031,3.539062 -2.17969,7.199219 -1.79297,11.117187 m 13.16407,9.988282 h -0.004 c 0.30469,3.078124 -0.63281,6.511718 -1.625,10.144531 -0.95703,3.523437 -1.94922,7.167969 -1.78125,10.59375 0.10547,2.148437 0.79687,4.230469 1.53516,6.433593 0.67578,2.027348 1.375,4.121098 1.5625,6.253908 0.26953,3.09766 -0.64454,6.20703 -1.53516,9.21094 -0.77734,2.64453 -1.58594,5.37109 -1.5625,8.05859 0.0156,2.88672 0.85937,5.94922 1.72656,8.94141 -2.25,-2.59766 -4.26562,-5.42969 -5.98828,-8.41797 -0.13672,-0.23047 -0.25781,-0.46094 -0.38672,-0.69141 l -0.0937,-0.17187 c 0.19922,-2.02735 0.84375,-3.98047 1.47266,-5.8711 0.72265,-2.18359 1.46875,-4.4375 1.55469,-6.84375 0.1289,-3.625 -0.73047,-6.21093 -1.5586,-8.71093 -0.66797,-2.000005 -1.35547,-4.074224 -1.53515,-6.695318 -0.26563,-3.644531 0.74609,-7.1875 1.71875,-10.609374 0.92187,-3.214844 1.78906,-6.25 1.67968,-9.359376 -0.082,-2.324218 -0.90234,-4.554687 -1.69531,-6.710937 -0.74609,-2.039063 -1.52344,-4.144531 -1.70312,-6.371094 -0.35547,-4.1875 0.73437,-7.527343 1.79296,-10.757812 0.97266,-2.988281 1.89454,-5.8125 1.71485,-9.164063 h 5.01562 c 0.0937,2.929688 -0.78515,5.40625 -1.71875,8.035156 -1.01172,2.847657 -2.05859,5.792969 -1.99609,9.613282 0.0312,2.207031 0.79297,4.257812 1.60156,6.429687 0.76563,2.0625 1.5625,4.199219 1.8086,6.660157 m 78.16408,22.050781 v -53.0625 c 0,-1.582031 -1.289,-2.871094 -2.875,-2.871094 h -91.07424 c -1.58203,0 -2.86328,1.285156 -2.86328,2.863281 v 53.03125 c 0,0.0625 -0.0664,1.535156 0.10547,3.988282 0.15625,2.257812 0.55078,5.824222 1.53906,10.003902 0.9375,3.98047 2.25,7.84766 3.89062,11.49219 0.29688,0.65625 0.60157,1.30469 0.91797,1.94531 0.89844,1.8125 1.90625,3.60547 2.99219,5.32813 2.02734,3.21094 4.36719,6.21094 6.94922,8.92187 0.51953,0.54688 1.03906,1.07813 1.55469,1.59766 1.66406,1.67578 3.35937,3.27344 5.03906,4.74609 1.48437,1.3086 3.01562,2.57032 4.55469,3.75391 1.14843,0.87891 2.29687,1.71875 3.42968,2.5 8.48837,5.84375 14.86727,7.69531 16.63287,8.125 l 0.8086,0.16016 0.8242,-0.16797 c 1.2227,-0.29688 4.582,-1.25391 9.3047,-3.70703 3.2773,-1.70704 6.6133,-3.82422 9.9101,-6.29688 4.0704,-3.05078 8.0977,-6.65625 11.9688,-10.71094 3.9844,-4.18359 7.3281,-8.98046 9.9375,-14.25 2.082,-4.21875 3.7031,-8.73828 4.8086,-13.4375 0.9844,-4.17968 1.3789,-7.74609 1.5391,-10.003902 0.1601,-2.335938 0.1132,-3.769532 0.1054,-3.949219"
     id="path4" />
  <path
     style="fill:#ffffff;fill-opacity:1;fill-rule:nonzero;stroke:none"
     d="m 582.8945,102.99609 c -0.7656,0.12891 -0.8125,1.1836 -1.3515,1.29688 -0.3867,0.0781 -1.0117,-0.71875 -1.2969,-0.89844 -0.6289,-0.3789 -1.1758,-0.53515 -1.6523,-1.11719 -0.8086,-0.98437 -1.9454,-2.460934 -2.0665,-3.749996 -0.066,-0.617188 -0.074,-1.246094 -0.1171,-1.863282 -0.047,-0.605468 1.6484,0.08203 1.8867,0.136719 1.7148,0.335938 3,0.07422 4.3945,-0.988281 1.6836,-1.277344 1.5234,-2.699219 1.1563,-4.597656 -0.5625,-2.796875 -0.062,-8.605469 4.2578,-6.550782 -0.031,-1.066406 -0.9844,-1.699218 -1.9727,-1.765624 -1.0703,-0.07422 -1.9492,0.996093 -2.4687,1.792968 -0.1758,0.257813 -0.1758,2.066406 -0.8633,1.785156 -0.6992,-0.292968 -0.5039,-2.144531 -0.3867,-2.738281 0.4297,-2.21875 2.7422,-3.109375 4.4297,-4.242187 1.5664,-1.058594 2.8046,-3.453125 0.3867,-4.492188 -0.1328,1.390625 -0.1367,2.003906 -1.2696,2.941406 -1.1171,0.921876 -2.7343,0.886719 -3.8242,1.917969 -0.5117,0.480469 -0.9961,1.335938 -0.7031,2.0625 0.1055,0.265625 0.6289,1 0.4375,1.3125 -0.5039,0.804688 -1.9648,-2.347656 -2.0078,-2.710937 -0.457,-3.625 4.2734,-4.777344 6.4726,-6.367188 1.2579,-0.910156 2.3399,-1.703125 2.4688,-3.367187 0.086,-1.101563 -0.6563,-2.84375 -1.9258,-2.988281 -0.031,-0.0039 0.2344,1.6875 0.25,1.878906 0.051,0.730468 -0.07,1.421875 -0.5234,2.023437 -0.7696,1.027344 -2.1407,1.304688 -3.2813,1.726563 -1.2656,0.46875 -2.6289,0.6875 -3.5976,1.695312 -0.5821,0.601563 -0.8594,1.445313 -1.0547,2.246094 -0.098,0.382812 -0.1875,3.484375 -0.9727,1.597656 -0.1484,-0.355468 -0.031,-2.140625 0.3321,-3.148437 0.5781,-1.546875 1.8281,-2.648438 2.9335,-3.796875 1.4024,-1.441406 2.8985,-2.671875 4.0235,-4.367188 0.7461,-1.125 1.4414,-2.5 1.4375,-3.882812 -0.01,-2.320313 -2.9375,-4.625 -5.1953,-4.269532 -1.8242,0.289063 -3.1914,0.757813 -4.3203,2.277344 -0.5157,0.695313 -1.1211,1.753906 -1.1094,2.644532 0.01,0.96875 0.4375,1.65625 0.6601,2.578124 0.3243,1.351563 1.6719,3.910157 -0.3945,4.667969 0.5039,0.820313 1.6406,0.269531 2.2422,-0.175781 2.25,-1.664062 1.793,-3.773438 1.2461,-6.175781 -0.3516,-1.507813 -0.5391,-3.011719 1.0898,-3.804688 1.4532,-0.707031 2.9297,-0.234375 3.7227,1.136719 1.6289,2.839844 -1.3125,5.976562 -3.1797,7.796875 -2.0117,1.957031 -4.3789,3.796875 -5.125,6.597656 -0.8086,3.074219 1.0039,6.085938 2.8242,8.382813 0.3867,0.492187 1.8594,2.261718 2.2227,2.824218 0.914,1.433594 2.0234,3.261719 1.3672,5 -1.1446,2.980469 -5.3672,2.464844 -6.9961,0.371094 -0.1016,-0.132812 -0.1914,-0.277344 -0.293,-0.417968 0,-0.0039 -0.012,-0.01563 -0.016,-0.01953 -0.012,-0.01563 -0.02,-0.03125 -0.031,-0.04687 -0.2226,-0.316406 -0.4414,-0.644531 -0.6406,-0.980469 -0.1055,-0.164062 -0.2031,-0.332031 -0.3047,-0.503906 -0.059,-0.101562 -0.1211,-0.203125 -0.1797,-0.308594 -0.4414,-0.765624 -0.8398,-1.523437 -1.1875,-2.226562 -0.7031,-1.339844 -1.2773,-2.992188 -2.1484,-4.199219 -0.4219,0.957031 -0.8125,1.832031 -1.5899,2.5625 -1.3789,1.304688 1.0508,1.957031 0.461,2.917969 -0.5313,0.875 -2.7031,-0.425781 -3.082,-0.90625 -0.3672,-0.457031 -0.7188,-1.007812 -0.8243,-1.59375 -0.035,-0.191406 0.066,-1.210938 -0.074,-1.289062 -0.6406,0.675781 -1.4375,1.40625 -1.9805,2.160156 -0.9492,1.355468 0.2383,1.824218 1.3399,2.375 2.3555,1.179687 4.4961,2.671875 4.2695,5.511718 -0.09,1.082032 -0.457,2.710938 -0.1172,3.769531 0.1993,0.6211 0.4961,0.7461 0.8282,1.23829 0.4336,0.64062 -0.7071,0.21484 -0.7696,0.21484 -1.3281,-0.0625 -1.082,2.03516 -1.0937,2.73828 -0.02,1.52344 -0.8711,1.89063 -1.9961,2.57813 0.02,-0.0117 0.047,0.0547 0.047,0.0742 0.8828,1.56641 2.9921,-2.51953 3.1796,-2.95312 0.2383,-0.59766 0.7305,-0.41016 0.9805,0.0547 0.2188,0.41406 -0.1562,0.46484 0.3164,0.95312 0.3125,0.33203 0.7422,0.61328 1.1211,0.86328 1.6641,1.07813 3.7383,1.70313 5.1289,3.20313 1.0469,1.15234 0.8867,3.46484 -0.1367,4.58594 -1.332,1.46093 -2.9062,0.44921 -4.5469,0.78906 -0.6015,0.125 -0.7187,1.57031 -0.3945,2.03515 0.4883,0.73047 1.3398,0.71094 1.1445,1.89063 -0.414,2.47266 1.5352,-0.70703 2.1875,-1.19922 0.4727,-0.375 1.2578,-0.83594 1.8672,-0.48437 0.5625,0.32812 -0.7773,1.6289 -1.0078,1.91015 0.4102,0.2461 0.793,0.50391 1.1836,0.80078 0.098,-0.40625 0.1758,-0.80078 0.4844,-1.07812 0.016,-0.0117 0.023,-0.0234 0.039,-0.0312 0.047,-0.0391 0.078,-0.082 0.1328,-0.11328 0.6368,-0.35547 0.543,0.11328 0.8829,0.39062 0.2109,0.17578 0.7695,0.26953 1.039,0.42578 0.6875,0.39063 0,-1.09375 0.01,-1.15625 0.1211,-1.20312 2.5469,-1.76953 1.9805,-3.08593 -0.2617,-0.62891 0.3359,-0.94922 0.4883,-0.3125 0.1211,0.51562 0.918,0.55859 1.2969,0.42578 -0.4297,-0.33203 -0.8633,-0.63672 -1.1602,-1.10547 -0.3281,-0.50781 -0.2148,-0.76563 0.012,-0.97656 0.012,-0.0117 0.024,-0.0156 0.035,-0.0273 0.2148,-0.1875 0.5156,-0.35547 0.6445,-0.65234 -0.2812,-0.4336 -1.5312,-0.55078 -0.3476,-1.01953 0.7929,-0.31641 1.7226,0.0234 2.4414,-0.70313 -0.6993,-0.17187 -1.7188,0.72656 -2.2969,-0.32422 -0.2656,-0.46875 -0.4688,-1.01172 -0.836,-1.40625 0,-0.0117 -1.0273,-0.90625 -0.4101,-0.8789 0.8164,0.0469 0.9726,0.96093 1.7305,0.8164 1.4765,-0.26953 2.1836,-1.46484 3.7461,-0.73047 0.5273,-2.7539 -4.1875,0.44922 -4.6602,-2.35546 -0.1523,-0.86719 0.7109,-0.88672 1.4141,-0.9961 1.2382,-0.1914 1.164,-1.3164 1.3789,-2.27734 0,-0.0156 0,-0.0273 0,-0.043 -0.7618,0.21094 -1.4922,0.35156 -2.2657,0.48437"
     id="path6" />
  <path
     style="fill:#ffffff;fill-opacity:1;fill-rule:nonzero;stroke:none"
     d="m 554.793,116.99219 c 0.8515,-0.8125 0.3711,-0.81641 -0.4102,-1.46875 -0.5156,-0.44531 -0.668,-0.96094 -0.082,-1.39063 0.5156,-0.36718 1.6211,0.60157 2.2617,0.52735 0.5352,-0.0664 1.4219,-0.28516 1.6016,-0.89453 0.066,-0.22266 0.4023,-2.3086 0.9257,-1.4961 0.4297,0.66016 0,1.28906 0.9493,1.82422 0.5703,0.3125 1.7187,0.71875 2.3515,0.44922 -0.7734,-0.55859 -1.9726,-1.17969 -0.9843,-2.13672 0.3398,-0.32031 0.031,-1.07422 0.2304,-1.50781 0.2969,-0.59375 0.9766,-0.66406 0.5742,-1.21485 -0.3242,-0.44531 0.2305,-0.875 0.4844,-1.17578 -0.1406,-0.54687 0.168,-0.85547 -0.1562,-1.38672 -0.4766,-0.80078 -1.4883,-1.61328 -1.1289,-2.70703 0.8945,-2.66406 3.2304,-4.23828 6.0234,-4.660154 0.1523,-0.02734 0.9805,0.02344 1,-0.207031 0.062,-0.761719 -0.375,-0.261719 -0.8672,-0.597656 -1.5469,-1.050781 0.7539,-1.65625 -1.0976,-5.910157 -1.2618,0.0625 -2.1485,1.140626 -2.9141,2.050782 -0.7813,0.929687 -1.6172,1.441406 -2.7578,1.792968 -0.9766,0.296876 -1.9492,0.285157 -2.8203,0.882813 -0.5782,0.390625 -1.168,0.777344 -1.6368,1.289063 -0.414,0.445312 -0.5859,1.140622 -1.0898,1.492192 -0.6328,0.45703 -0.5391,0.30859 -0.7422,1.04687 -0.1289,0.50391 -0.09,1.01563 -0.207,1.52344 -0.2344,1.1289 -1.0781,1.89453 -2.0078,2.47265 1.0273,0.33204 1.789,0.29297 2.4765,-0.66796 0.25,-0.35547 0.4375,-0.75782 0.6328,-1.14844 0.1719,-0.3125 0.5391,-0.0937 0.461,0.21484 -0.2891,1.10938 0.9609,1.45703 1.3398,2.46094 0.3906,1.03516 -0.2617,2.23828 -1.1523,2.78516 -0.7344,0.44921 -1.5899,0.33203 -2.1797,1.01562 -0.5117,0.59375 -1.4688,1.94141 -2.3906,1.17188 -0.1563,-0.14844 -0.5938,-0.3711 -0.6485,-0.6211 -0.066,-0.39062 0.1172,-1.07422 -0.332,-1.33203 -0.4063,-0.23047 -1.8086,1.21875 -2.0391,1.47266 0.4883,0.39062 1.3828,0.53515 1.543,1.24609 0.082,0.33984 -1.8125,-0.58594 -2.25,-0.59766 -0.1211,-0.004 -0.5391,1.82032 -0.5352,2.13282 0.012,0.72265 1.7188,0.10156 2.168,0.13672 0.035,0.68359 -0.5898,0.5664 -1.0547,0.76562 -0.7343,0.30078 0.3711,1.21484 0.5469,1.54297 0.2266,0.4375 0.051,1.23437 0.8242,0.89844 0.6367,-0.26953 0.5235,-1.125 1.0703,-1.52344 0.4375,-0.32813 1.3125,-0.78125 1.875,-0.74609 0.7852,0.0469 1.1133,0.59375 0.4727,1.15234 -0.8164,0.6875 0.047,0.79297 0.2773,1.25391 0.668,-0.1875 1.086,0.49609 1.3672,0.9414 0,0.004 0,0 0.01,0 0.3828,-0.39453 -0.3945,-0.75781 0.02,-1.15234"
     id="path8" />
  <path
     style="fill:#ffffff;fill-opacity:1;fill-rule:nonzero;stroke:none"
     d="m 556.1094,93.085938 c 0.2734,-0.06641 1.8398,-0.773438 1.9609,-0.261719 0.1055,0.359375 -0.1211,0.808593 0.4649,0.84375 0.2773,0.01953 0.875,-0.136719 0.9257,-0.492188 0.059,-0.429687 0.625,0.226563 0.7227,0.261719 0.4492,0.195312 1.3906,-0.02344 1.6328,-0.480469 -0.8828,-0.191406 -1.3633,-0.875 -0.9297,-1.785156 0.3789,-0.789063 0.543,-0.539063 0.062,-1.382813 -0.2929,-0.503906 -0.4414,-1.058593 -0.625,-1.605468 -1.0078,1.78125 -2.0703,2.816406 -4.1953,3.203125 -1.418,0.25 -4.6641,-0.980469 -3.6289,-2.933594 0.3594,-0.6875 1.4023,-1.246094 2.1953,-1.4375 0.012,-0.0039 0.023,-0.0039 0.035,-0.0078 0.07,-0.01172 0.1484,-0.03125 0.2187,-0.04297 1.1094,-0.15625 -0.1797,1.003906 -0.2148,1.175781 -0.2227,1.136719 1.625,0.191406 1.9218,-0.08203 0.336,-0.308594 0.211,-0.910156 0.1446,-1.300782 -0.1055,-0.59375 -0.1406,-1.21875 -0.2813,-1.804687 -0.2539,-0.01563 -0.4726,0.171875 -0.6718,0.304687 -0.6836,0.46875 -1.4102,0.882813 -2.0899,1.355469 -0.9101,0.636719 -1.7773,1.324219 -2.5976,2.058594 -0.6329,0.566406 -1.2422,1.15625 -1.8243,1.777344 -0.7187,0.761719 -2.4804,2.605469 -3.75,1.832031 -0.3398,-0.203125 -0.8515,-1.457031 -1.082,-1.457031 -0.9414,-0.01953 -0.4375,0.410156 -0.8281,1.039062 -0.1953,0.316407 -0.5781,0.371094 -0.8711,0.53125 0.125,0.371094 0.9258,0.828125 0.3906,1.117188 -0.5,0.257812 -1.2812,0.234375 -1.832,0.363281 0.1953,0.410156 0.4336,0.835938 0.1953,1.285156 -0.1602,0.316406 0.4687,0.550782 0.625,0.820313 0.1601,0.324219 0.043,0.636719 0.3594,0.820312 0.4609,0.257813 0.6992,0.699219 0.6211,1.246094 -0.1641,1.277344 1.6914,-0.871094 1.7539,-0.929687 0.5156,-0.53125 2.875,-1.089844 2.3047,0.335937 -0.1797,0.464844 -0.586,0.800781 -0.2227,1.324219 0.668,-0.05469 0.8594,-0.08984 1.457,0.238281 1.2539,-0.75 0.6172,-1.117187 0.2383,-2.246094 -0.1328,-0.398437 1.4883,-0.382812 1.8711,-0.878906 0.8555,-1.125 0.875,0.324219 0.9492,1.078125 0.4727,-0.03516 0.6641,-0.597656 0.7539,-0.96875 0.1992,-0.78125 1.3242,0.597656 1.2774,-0.148438 -0.027,-0.449218 0.047,-0.894531 0.3242,-1.261718 0.3125,-0.425782 0.6641,0.414062 0.6055,0.660156 -0.1133,0.605469 1.5507,0.558594 2.0351,0.726562 0.016,0 0.035,0 0.051,0.0039 0.1523,-0.488281 -1.1992,-2.714844 -0.4531,-2.894531"
     id="path10" />
  <path
     style="fill:#ffffff;fill-opacity:1;fill-rule:nonzero;stroke:none"
     d="m 552.832,81.691406 c 0.6914,-0.761718 1.2735,-1.320312 2.168,-1.859375 -1.1914,-0.820312 -3.2031,-1.96875 -2.4648,-3.789062 0.3359,-0.835938 1.1796,0.308593 1.8085,0.371093 0.8711,0.07813 1.9258,0.09766 2.7422,-0.261718 -0.2461,-0.316406 -1.0547,-0.460938 -1.414,-0.808594 -0.6836,-0.664062 -0.9024,-1.511719 -0.625,-2.417969 0.1484,-0.460937 -2.2149,-1.902343 -2.7227,-2.40625 -1.1211,-1.09375 -2.793,-2.6875 -2.5547,-4.421875 0.066,-0.449218 0.1407,-1.1875 0.5078,-1.5 0.1836,-0.152344 0.3321,-1.960937 0.2422,-2.144531 -0.5195,0.257813 -1.1718,0.492187 -1.6406,-0.01172 -0.5703,-0.609375 -0.4609,0.609375 -0.4023,0.777344 0.2382,0.695312 0.582,1.3125 0.6445,2.0625 0.043,0.664062 -0.7031,1.414062 -0.7031,0.488281 -0.5157,-0.566406 -0.8828,-1.136719 -1.2735,-1.796875 -0.1484,-0.246094 0.1016,-2.089844 -0.4023,-1.726562 -0.3047,0.222656 -0.7422,-0.02344 -0.9883,0.234375 -0.2422,0.234375 -0.039,0.707031 -0.1523,1.011719 -0.2422,0.71875 -1.2657,0.09766 -1.6133,-0.09766 -0.1914,0.890625 -1.3125,1.1875 -0.5352,2.125 0.8164,0.964844 2.1094,0.636719 2.9219,1.648438 0.8711,1.097656 -0.2305,2.285156 -1.3047,2.492187 -0.2617,0.05469 -0.5312,0.5625 -0.3164,0.800782 0.4531,0.503906 0.293,1.285156 0.027,1.820312 0.5,0.203125 1.1719,0.03516 1.6055,-0.238281 0.5938,-0.371094 0.2656,-0.871094 0.9961,-0.878907 0.098,-0.0039 0.5274,1.292969 0.5859,1.421876 0.3985,0.828124 0.3008,1.480468 -0.1523,2.273437 -0.5703,0.976563 0.582,2.480469 0.3984,3.574219 -0.2578,1.496094 -1.0625,1.328125 -2.1445,0.589844 -0.2891,0.226562 0.7149,0.855468 0.8555,0.894531 1.0781,0.300781 1.6914,-0.328125 1.9336,-1.210938 0.2383,-0.847656 0.031,-1.703125 0.3867,-2.558593 0.4492,-1.046876 1.3086,-0.300782 0.9062,0.09375 -1,0.992187 1.4961,2.699218 1.2071,3.929687 -0.1133,0.441406 1.0781,1.492187 1.4726,1.519531"
     id="path12" />
  <path
     style="fill:#ffffff;fill-opacity:1;fill-rule:nonzero;stroke:none"
     d="m 567.1602,93.320312 c 0.1562,0.898438 0.5039,3.21875 1.3711,3.46875 0.4726,-1.105468 -0.2305,-3.035156 -1.3711,-3.46875"
     id="path14" />
  <path
     style="fill:#ffffff;fill-opacity:1;fill-rule:nonzero;stroke:none"
     d="m 571.0039,120.01563 c 0.3555,-0.28907 2.2344,-1.49219 1.1758,-2.15625 -0.2344,0.33203 -0.9414,0.21093 -1.2734,0.60937 -0.336,0.39844 -0.2657,1.19141 0.098,1.54688"
     id="path16" />
  <path
     style="fill:#ffffff;fill-opacity:1;fill-rule:nonzero;stroke:none"
     d="m 543.3945,90.921875 c -0.457,-0.738281 -2.4023,0.132813 -2.5547,0.824219 0.2539,0 3.2852,0.394531 2.5547,-0.824219"
     id="path18" />
  <path
     style="fill:#ffffff;fill-opacity:1;fill-rule:nonzero;stroke:none"
     d="m 549.7344,62.265625 c 0.332,-0.08203 0.8047,-0.511719 0.5781,-0.882813 -0.3125,-0.515624 -0.8906,-0.5625 -1.4531,-0.640624 0.3203,0.476562 -0.039,1.738281 0.875,1.523437"
     id="path20" />
  <path
     style="fill:#ffffff;fill-opacity:1;fill-rule:nonzero;stroke:none"
     d="m 542.6484,97.566406 c -0.1211,-0.589844 -1.8554,0.597656 -1.3242,1.578125 0.016,0 0.062,0.05469 0.039,0.07422 0.4023,-0.382812 1.4258,-0.953125 1.2851,-1.652344"
     id="path22" />
  <path
     style="fill:#ffffff;fill-opacity:1;fill-rule:nonzero;stroke:none"
     d="m 548.4219,110.26172 c 2.1172,-1.09375 -0.3164,-1.61719 -1.0196,-0.53125 0.4336,-0.004 0.75,0.22266 1.0196,0.53125"
     id="path24" />
  <path
     style="fill:#ffffff;fill-opacity:1;fill-rule:nonzero;stroke:none"
     d="m 547.793,99.296875 c -0.3477,0.781255 -1.6055,0.566406 -1.8828,1.097655 0.6445,1.3711 3.0195,-1.109374 1.8828,-1.097655"
     id="path26" />
  <path
     style="fill:#ffffff;fill-opacity:1;fill-rule:nonzero;stroke:none"
     d="m 543.3281,63.636719 c 0.1992,-1.324219 -1.4726,-0.425781 -1.7773,0.183593 0.457,-0.03125 1.6601,0.472657 1.7773,-0.183593"
     id="path28" />
  <path
     style="fill:#ffffff;fill-opacity:1;fill-rule:nonzero;stroke:none"
     d="m 576.2031,119.70313 c -0.8203,-0.30079 -0.8672,1.27734 -0.1211,1.60546 0.1289,-0.58984 0.8868,-1.32421 0.1211,-1.60546"
     id="path30" />
  <path
     style="fill:#ffffff;fill-opacity:1;fill-rule:nonzero;stroke:none"
     d="m 546.668,61.539062 c 0.5781,-1.105468 -1.0664,-1.207031 -1.6211,-0.878906 0.2343,0.132813 1.4101,1.269532 1.6211,0.878906"
     id="path32" />
  <path
     style="fill:#ffffff;fill-opacity:1;fill-rule:nonzero;stroke:none"
     d="m 571.1953,115.28906 c -0.6484,-0.082 -1.1719,0.86328 -1.0195,1.44532 -0.019,-0.0703 0.047,-0.0195 0,0 0.789,-0.3086 1.2578,-0.46094 1.0195,-1.44532"
     id="path34" />
  <path
     style="fill:#ffffff;fill-opacity:1;fill-rule:nonzero;stroke:none"
     d="m 554.2383,118.35938 c 0.027,-1.37891 -1.1485,-0.0234 -1.4961,0.24609 0.289,0.13281 1.4805,0.42578 1.4961,-0.24609"
     id="path36" />
  <path
     style="fill:#ffffff;fill-opacity:1;fill-rule:nonzero;stroke:none"
     d="m 545.6914,113.33594 c 0.3203,-0.21875 1.9961,-0.67188 1.2813,-1.17188 -0.7735,-0.52343 -1.2579,0.60547 -1.2813,1.17188"
     id="path38" />
  <path
     style="fill:#ffffff;fill-opacity:1;fill-rule:nonzero;stroke:none"
     d="m 547.6953,117.30859 c 0.098,-0.38671 0.4141,-0.57812 0.7305,-0.74218 -0.5156,-1.60157 -1.6211,0.25781 -0.7305,0.74218"
     id="path40" />
  <path
     style="fill:#ffffff;fill-opacity:1;fill-rule:nonzero;stroke:none"
     d="m 543.5156,70.933594 c 0.3086,1.972656 1.9219,-0.04297 0,0"
     id="path42" />
  <path
     style="fill:#ffffff;fill-opacity:1;fill-rule:nonzero;stroke:none"
     d="m 539.9453,95.214844 c 0.2734,-0.140625 1.8399,-0.03516 1.0586,-0.878906 -0.3945,0.132812 -1.2109,0.261718 -1.0586,0.878906"
     id="path44" />
  <path
     style="fill:#ffffff;fill-opacity:1;fill-rule:nonzero;stroke:none"
     d="m 579.3438,119.74609 c -0.7852,-0.67578 -1.0508,0.13282 -0.6329,0.76563 0.211,-0.25391 0.4141,-0.51563 0.6329,-0.76563"
     id="path46" />
  <path
     style="fill:#ffffff;fill-opacity:1;fill-rule:nonzero;stroke:none"
     d="m 561.5938,67.367188 c -0.3086,0.05859 -0.3125,0 -0.4375,0.07812 0.035,-0.02344 -0.02,0.132813 0,0 -0.035,0.230469 -0.129,0.734376 0.2929,0.683594 0.047,-0.253906 0.098,-0.511718 0.1446,-0.761718"
     id="path48" />
  <path
     style="fill:#ffffff;fill-opacity:1;fill-rule:nonzero;stroke:none"
     d="m 562.4453,70.335938 c 0.09,0.105468 0.2031,0.109374 0.3164,0.0078 -0.07,-0.07031 -0.1484,-0.140625 -0.2265,-0.214844 -0.031,0.07422 -0.062,0.132813 -0.09,0.210938"
     id="path50" />
  <path
     style="fill:#ffffff;fill-opacity:1;fill-rule:nonzero;stroke:none"
     d="m 565.5703,67.703125 c -1.6211,-0.179687 -2.6875,0.757813 -4.0586,1.246094 -0.7695,0.273437 -1.5703,0.617187 -2.4062,0.292969 -0.3789,-0.152344 -1.3985,-0.917969 -1.75,-0.925782 0.1797,2.128906 1.8867,2.644532 3.6133,1.84375 0.789,-0.371094 1.4101,-1.011718 2.2343,-1.332031 0.6836,-0.273437 2.3047,-0.34375 2.3672,-1.125"
     id="path52" />
  <path
     style="fill:#ffffff;fill-opacity:1;fill-rule:nonzero;stroke:none"
     d="m 564.4727,63.457031 c -0.2813,0.257813 -1.4649,-0.117187 -1.5274,-0.746093 -0.035,-0.375 1.9766,0.332031 1.5274,0.746093 m 9.039,6.550781 c -0.2304,-0.839843 0.1289,-1.800781 -0.1562,-2.640624 -0.09,-0.257813 -0.5625,-0.515626 -0.5547,-0.785157 0.01,-0.367187 0.7109,-0.605469 0.918,-0.863281 -0.2305,-0.01953 -0.4688,-0.0078 -0.6954,-0.07031 -0.2148,-0.05859 -0.3789,-0.199219 -0.5,-0.382813 -0.1171,-0.175781 -0.1992,-0.375 -0.2929,-0.5625 -0.09,-0.171875 -0.1719,-0.347656 -0.2539,-0.527344 -0.024,-0.05469 -0.3555,-0.914062 -0.2735,-0.921875 -0.3828,0.03516 -1.6328,0.597656 -1.6406,-0.09766 0,-0.316406 1.4961,-0.386719 1.8359,-0.617188 0.4688,-0.316406 0.5899,-0.730468 0.012,-1.007812 -0.5664,-0.269531 -1.2305,-0.316406 -1.836,-0.152344 -0.6211,0.171875 -0.9101,0.558594 -1.3359,1.003906 -0.024,0.02344 -0.051,0.05078 -0.086,0.05859 -0.2265,0.07422 -0.2695,-0.425781 -0.2421,-0.554687 0.047,-0.25 0.2343,-0.414063 0.4296,-0.554688 0.2071,-0.144531 0.4415,-0.242187 0.6797,-0.328125 0.2344,-0.07422 0.4883,-0.101562 0.7071,-0.226562 -0.4649,-0.675782 -1.4961,-1.015625 -2.2852,-1.015625 -0.8984,-0.04297 -1.7969,0.164062 -2.6484,0.421875 -0.75,0.226562 -1.4766,0.503906 -2.211,0.757812 -0.375,0.125 -0.9375,0.574219 -1.3476,0.519532 -0.07,-0.01563 -0.125,0.386718 -0.1914,0.734374 -0.016,0.08203 -0.031,0.164063 -0.051,0.234376 -0.027,0.109374 -0.059,0.195312 -0.098,0.238281 -0.035,0.04297 -0.078,0.08594 -0.1328,0.125 -0.023,0.01953 -0.047,0.03516 -0.07,0.05078 -0.8047,0.570312 -2.8516,1.050781 -1.7461,2.363281 0.3828,0.449219 0.1758,0.828125 0.375,1.304688 0.2695,0.632812 1.461,0.441406 1.9414,0.269531 0.6953,-0.246094 3.2852,-1.484375 3.8086,-0.628906 0.668,1.09375 0.8828,2.605468 0.2149,3.804687 -0.6407,1.132813 -2.4258,0.695313 -3.4532,1.066407 0.051,0.609374 0.047,1.855468 0.8047,2.066406 0.8086,0.226562 2.0117,-0.765625 2.4961,-1.304688 0.1172,-0.140625 1.125,-1.570312 1.3125,-0.9375 0.2149,0.75 -0.9805,2.097656 -1.4297,2.597656 -0.5468,0.578126 -1.5351,0.902344 -2.3125,0.890626 -0.9648,-0.02344 -1.7109,-0.527344 -2.6211,-0.378907 -0.027,0.0039 -0.051,0.01172 -0.074,0.01953 -0.1094,0.01563 -0.2187,0.04297 -0.3359,0.08594 -1.6797,0.609375 -3.9766,0.4375 -3.4571,-1.933594 -1.1562,0.203125 -1.6523,1.523438 -1.0234,2.488282 0.3242,0.5 0.9453,0.859374 1.5156,0.972656 0.024,0.0039 0.059,0.0039 0.1055,0.0039 h 0.1562 c 0.039,0 0.082,0 0.125,0 0.016,0.0039 0.027,0 0.043,0.0039 0.3477,0.0078 0.7539,0.06641 0.6992,0.40625 -0.066,0.5 -1.3281,0.90625 -1.7695,0.972656 -1.3555,0.207032 -2.2812,0.07813 -3.457,-0.53125 -0.1016,1.285157 1.3593,3.3125 2.875,3.09375 0.4218,-0.05859 0.832,-0.171874 1.25,-0.234374 0.2656,-0.04297 0.5625,-0.105469 0.7929,0.07031 0.1914,0.144531 0.4454,0.691406 0.168,0.867188 -0.07,0.04687 -0.1641,0.04297 -0.2461,0.03906 -0.8828,-0.04297 -1.7383,-0.109375 -2.5898,0.167969 -0.9375,0.300781 -1.4727,0.914062 -2.0703,1.644531 -0.5547,0.683594 -0.9493,1.09375 -1.8086,1.359375 -0.4883,0.152344 -0.8711,-0.105469 -1.1289,-0.523437 -0.062,-0.105469 -0.625,-1.289063 -0.5547,-1.367188 -1.0742,1.183594 -0.066,2.773438 0.9609,3.582031 0.5156,0.40625 1.1719,0.773438 1.8399,0.800781 0.9687,0.04297 1.9453,-0.488281 2.7773,-0.929687 0.5586,-0.289063 1.0898,-0.632813 1.625,-0.964844 0.3672,-0.234375 1.0312,-0.820312 1.4805,-0.800781 0.1914,0.01172 0.3828,0.152344 0.4062,0.347656 0.016,0.15625 -0.074,0.304688 -0.1992,0.398438 -0.2891,0.222656 -0.6992,0.257812 -0.9844,0.492187 -0.9883,0.800781 -0.5547,1.769531 -0.4062,2.84375 0.2695,1.984375 -2.9102,2.890625 -3.0547,0.453125 -2.0977,1.160156 -1.3086,2.4375 0.6562,3.039063 1.4375,0.449219 3.6485,-0.722657 4.4258,-1.921875 0.3086,-0.460938 0.4688,-1.070313 0.6953,-1.578125 0.086,-0.195313 0.8594,-1.96875 1.1797,-1.398438 0.3477,0.617188 -0.5547,1.449219 -0.3672,2.125 0.2891,1.015625 0.8633,2.394531 1.8516,2.921875 -0.2109,-0.109375 0.1055,-1.523437 0.1758,-1.726562 0.2187,-0.636719 0.6601,-1.144532 1.1406,-1.597656 1.0625,-1 1.7305,-2.15625 2.2578,-3.5 0.2852,-0.714844 0.6094,0.226562 0.4336,0.683593 -0.2773,0.664063 -0.4453,1.449219 -0.5039,2.164063 -0.1055,1.527344 0.9375,3.105468 2.6172,2.898437 -0.3008,-0.480469 -0.6797,-0.773437 -0.7617,-1.363281 -0.1407,-1.035156 0.6484,-1.457031 1.1758,-2.1875 0.4296,-0.59375 0.8437,-1.351562 0.8046,-2.105469 -0.023,-0.410156 -0.1953,-0.789062 -0.2265,-1.195312 -0.024,-0.324219 0.043,-2.15625 0.664,-1.953125 0.016,0.0078 0.027,0.01953 0.035,0.03906 0.2148,0.234375 -0.1523,1.480469 -0.1055,1.859375 0.098,0.703125 0.5469,1.605469 1.1563,2.105469 0.3945,0.320312 1.5469,0.628906 1.8047,-0.02734 -0.2071,-0.109375 -0.4493,-0.136718 -0.668,-0.214844 -0.875,-0.304687 -1.0469,-1.371093 -0.832,-2.164062 0.1328,-0.578125 0.4453,-1.113281 0.5625,-1.683594 0.1132,-0.496094 -0.9102,-1.195312 -0.6758,-1.542968 0.1914,-0.285157 1.4609,1.039062 2.0469,0.765624 -0.3789,-0.816406 -0.9063,-1.671874 -0.6641,-2.621093 0.2383,-0.933594 0.4336,-1.886719 0.6172,-2.835938 0.1094,-0.585937 0.5742,-1.976562 -0.25,-2.292969 -0.2735,-0.105468 -0.957,-0.21875 -1.1055,-0.53125 -0.082,-0.183593 0.012,-0.5 0.2539,-0.390624 0.668,0.320312 1.543,0.625 2.168,0.01562 0.2148,-0.21875 -1.1445,-1.078124 -1.293,-1.5625"
     id="path54" />
  <path
     style="fill:#ffffff;fill-opacity:1;fill-rule:nonzero;stroke:none;opacity:1"
     d="m 665.7969,59.507812 h 1.1679 c 1.504,0 1.879,-0.996093 1.9454,-1.515624 0.066,-0.546876 -0.1524,-1.488282 -1.5782,-1.488282 h -1.1679 z m -1.2461,-4.707031 h 3.0195 c 1.1328,0 1.8125,0.214844 2.3125,0.664063 0.5078,0.453125 1.0078,1.25 0.8672,2.382812 -0.082,0.652344 -0.4453,1.671875 -1.2383,2.355469 -0.6523,0.554687 -1.2265,0.691406 -1.7344,0.808594 l 2.2344,3.632812 h -2.2109 l -2.1485,-3.761719 h -0.023 l -0.4609,3.761719 h -1.8242 z m 0,0"
     id="path56" />
  <path
     style="fill:#ffffff;fill-opacity:1;fill-rule:nonzero;stroke:none;opacity:1"
     d="m 674.5313,52.859375 3.2109,-1.769531 0.5469,1.394531 -3.2305,1.597656 z m -1.3047,1.941406 h 5.2968 l -0.2109,1.703125 h -3.4727 l -0.2929,2.40625 h 3.3242 l -0.207,1.703125 h -3.3282 l -0.2851,2.328125 h 3.4726 l -0.207,1.703125 h -5.2969 z m 0,0"
     id="path58" />
  <path
     style="fill:#ffffff;fill-opacity:1;fill-rule:nonzero;stroke:none;opacity:1"
     d="m 684.1836,59.628906 h 6.418 l -0.024,0.214844 c -0.3476,2.804688 -3.0703,4.996094 -5.8281,4.996094 -2.8164,0 -5.0234,-2.164063 -4.6602,-5.117188 0.3555,-2.902344 3.086,-5.121094 5.8633,-5.121094 2.4766,0 4.0664,1.675782 4.3985,3.085938 h -2.1836 c -0.3399,-0.65625 -1.1563,-1.386719 -2.461,-1.386719 -2.2187,0 -3.6093,1.886719 -3.8007,3.433594 -0.1836,1.503906 0.7148,3.40625 3.0546,3.40625 1.211,0 2.4219,-0.664063 3.1329,-1.808594 h -4.1211 z m 0,0"
     id="path60" />
  <path
     style="fill:#ffffff;fill-opacity:1;fill-rule:nonzero;stroke:none;opacity:1"
     d="m 693.4609,54.800781 h 1.8204 l -1.211,9.84375 H 692.25 Z m 0,0"
     id="path62" />
  <path
     style="fill:#ffffff;fill-opacity:1;fill-rule:nonzero;stroke:none;opacity:1"
     d="m 701.7891,63.140625 c 1.8711,0 3.5195,-1.585937 3.7461,-3.40625 0.2265,-1.886719 -1.0586,-3.433594 -2.9102,-3.433594 -1.8516,0 -3.5156,1.546875 -3.7461,3.433594 -0.2266,1.820313 1.0313,3.40625 2.9102,3.40625 m 1.0468,-8.539063 c 2.793,0 4.875,2.230469 4.5157,5.144532 -0.3438,2.824218 -2.9414,5.09375 -5.7774,5.09375 -2.832,0 -4.8672,-2.269532 -4.5195,-5.09375 0.3594,-2.914063 2.9844,-5.144532 5.7812,-5.144532"
     id="path64" />
  <path
     style="fill:#ffffff;fill-opacity:1;fill-rule:nonzero;stroke:none;opacity:1"
     d="m 709.7617,54.769531 h 2.0391 l 3.1406,7.042969 h 0.031 l 0.8632,-7.042969 h 1.7891 l -1.1875,9.679688 h -2 l -3.1797,-7.039063 h -0.027 l -0.8633,7.039063 h -1.793 z m 0,0"
     id="path66" />
  <path
     style="fill:#ffffff;fill-opacity:1;fill-rule:nonzero;stroke:none;opacity:1"
     d="m 617.4219,65.585938 h 5.1211 l 7.875,17.65625 h 0.066 l 2.164,-17.65625 h 4.5 l -2.9843,24.285156 h -5.0196 l -7.9765,-17.65625 h -0.062 l -2.168,17.65625 h -4.5 z m 0,0"
     id="path68" />
  <path
     style="fill:#ffffff;fill-opacity:1;fill-rule:nonzero;stroke:none;opacity:1"
     d="m 653.957,80.671875 c 0.4141,-3.367187 -1.8828,-5.871094 -4.6484,-5.871094 -2.3047,0 -5.6758,1.972657 -6.1523,5.835938 -0.4258,3.5 1.9296,5.765625 4.7304,5.765625 3.2305,0 5.711,-2.800782 6.0703,-5.730469 m -15.2343,-0.03516 c 0.6875,-5.601563 5.7851,-9.902344 11.0859,-9.902344 5.2344,0 9.2891,4.167969 8.5937,9.835937 -0.746,6.0625 -5.8867,9.898438 -11.0156,9.898438 -5.5,0 -9.3125,-4.53125 -8.664,-9.832031"
     id="path70" />
  <path
     style="fill:#ffffff;fill-opacity:1;fill-rule:nonzero;stroke:none;opacity:1"
     d="m 678.832,71.367188 -2.2734,18.503906 h -4.0625 L 672.7266,88 h -0.066 c -0.8594,1.003906 -2.2383,2.46875 -5.0704,2.46875 -3.3671,0 -5.0664,-1.664062 -5.8437,-2.933594 -1.125,-1.964844 -0.7578,-4.964844 -0.5703,-6.5 l 1.1914,-9.667968 h 4.4336 l -1.1602,9.433593 c -0.1836,1.503907 -0.6875,5.601563 3.1797,5.601563 2.8008,0 4.0547,-2.636719 4.418,-5.566406 l 1.1601,-9.46875 z m 0,0"
     id="path72" />
  <path
     style="fill:#ffffff;fill-opacity:1;fill-rule:nonzero;stroke:none;opacity:1"
     d="m 681.1289,71.367188 h 4.7969 l 2.9609,12.269531 h 0.098 l 5.707,-12.269531 h 4.8633 l -9.7656,18.503906 h -3.4688 z m 0,0"
     id="path74" />
  <path
     style="fill:#ffffff;fill-opacity:1;fill-rule:nonzero;stroke:none;opacity:1"
     d="m 714.2266,79.035156 c -0.1368,-2.964844 -2.2696,-4.328125 -4.4727,-4.328125 -1.6328,0 -4.5078,0.898438 -5.7617,4.328125 z m -10.5391,3.566406 c 0.051,1.199219 1.4648,3.800782 4.6328,3.800782 1.9649,0 3.5313,-0.835938 4.5586,-2.367188 h 4.668 c -1.4766,3.332032 -5.3946,6.433594 -9.7305,6.433594 -5.4961,0 -9.2266,-4.402344 -8.5586,-9.796875 0.6406,-5.234375 5.2617,-10.035156 10.9649,-10.035156 5.8632,0 8.9453,5.066406 8.375,9.734375 -0.1094,0.867187 -0.336,1.632812 -0.543,2.230468 z m 0,0"
     id="path76" />
  <path
     style="fill:#ffffff;fill-opacity:1;fill-rule:nonzero;stroke:none;opacity:1"
     d="m 723.5898,65.199219 h 4.4336 l -3.0273,24.671875 h -4.4336 z m 0,0"
     id="path78" />
  <path
     style="fill:#ffffff;fill-opacity:1;fill-rule:nonzero;stroke:none;opacity:1"
     d="m 731.9219,65.199219 h 4.4336 l -3.0274,24.671875 h -4.4336 z m 0,0"
     id="path80" />
  <path
     style="fill:#ffffff;fill-opacity:1;fill-rule:nonzero;stroke:none;opacity:1"
     d="m 752.5625,79.035156 c -0.1367,-2.964844 -2.2734,-4.328125 -4.4727,-4.328125 -1.6289,0 -4.5078,0.898438 -5.7656,4.328125 z m -10.543,3.566406 c 0.055,1.199219 1.4688,3.800782 4.6368,3.800782 1.9648,0 3.5351,-0.835938 4.5585,-2.367188 h 4.668 c -1.4805,3.332032 -5.3906,6.433594 -9.7265,6.433594 -5.5,0 -9.2266,-4.402344 -8.5665,-9.796875 0.6446,-5.234375 5.2657,-10.035156 10.9688,-10.035156 5.8633,0 8.9453,5.066406 8.3711,9.734375 -0.1094,0.867187 -0.3359,1.632812 -0.543,2.230468 z m 0,0"
     id="path82" />
  <path
     style="fill:#ffffff;fill-opacity:1;fill-rule:nonzero;stroke:none;opacity:1"
     d="m 728.0625,98.628906 c -0.1797,1.472654 -1.5156,2.664064 -2.9844,2.664064 -1.4726,0 -2.5156,-1.19141 -2.3398,-2.664064 0.1836,-1.46875 1.5195,-2.660156 2.9883,-2.660156 1.4726,0 2.5156,1.191406 2.3359,2.660156"
     id="path84" />
  <path
     style="fill:#ffffff;fill-opacity:1;fill-rule:nonzero;stroke:none;opacity:1"
     d="m 624.8203,111.64453 h 5.4414 l -1.7265,-7.85937 h -0.059 z m 2.8125,-14.542968 h 3.4219 l 6.7734,25.628908 h -4.832 l -1.7148,-6.61328 h -8.4805 l -3.3399,6.61328 h -4.832 z m 0,0"
     id="path86" />
  <path
     style="fill:#ffffff;fill-opacity:1;fill-rule:nonzero;stroke:none;opacity:1"
     d="m 649.3125,119.125 c 3.0078,0 5.4766,-2.90625 5.8555,-5.98828 0.3672,-3.01563 -1.2696,-6.05859 -4.4063,-6.05859 -3.039,0 -5.5312,2.80078 -5.9179,5.95703 -0.4727,3.8789 1.8125,6.08984 4.4687,6.08984 m 11.0703,-15.61719 -3.5351,28.40235 h -4.2539 l 1.4023,-11.01953 c -2.3867,2.46093 -5.2031,2.46093 -5.7109,2.46093 -5.3829,0 -8.336,-5.1289 -7.6836,-10.42187 0.6718,-5.50781 5.3672,-10.08203 10.2265,-10.08203 3.6211,0 4.8008,2.11328 5.2891,3.08593 h 0.062 l 0.2969,-2.42578 z m 0,0"
     id="path88" />
  <path
     style="fill:#ffffff;fill-opacity:1;fill-rule:nonzero;stroke:none;opacity:1"
     d="m 679.6133,103.50781 -2.3594,19.21875 h -3.9023 l 0.2382,-1.9414 h -0.062 c -0.832,1.03906 -2.1757,2.5664 -4.8945,2.5664 -3.2305,0 -4.8437,-1.73437 -5.5781,-3.04687 -1.0625,-2.04297 -0.6758,-5.16016 -0.4844,-6.75391 l 1.2344,-10.04297 h 4.2578 l -1.2031,9.80078 c -0.1953,1.5625 -0.7149,5.81641 3,5.81641 2.6875,0 3.9179,-2.73437 4.2929,-5.78125 l 1.2032,-9.83594 z m 0,0"
     id="path90" />
  <path
     style="fill:#ffffff;fill-opacity:1;fill-rule:nonzero;stroke:none;opacity:1"
     d="m 691.9688,107.59375 h -2.0782 l 0.5,-4.08594 h 2.0782 l 0.789,-6.406248 h 4.2539 l -0.7851,6.406248 h 2.5586 l -0.5039,4.08594 h -2.5547 l -1.8594,15.13672 h -4.2539 z m 0,0"
     id="path92" />
  <path
     style="fill:#ffffff;fill-opacity:1;fill-rule:nonzero;stroke:none;opacity:1"
     d="m 709.5977,107.07813 c -3.4844,0 -5.6797,3.2539 -6.0313,6.1289 -0.4023,3.25391 1.5117,5.91797 4.5547,5.91797 2.9414,0 5.4922,-2.49219 5.9258,-6.05859 0.4883,-3.98438 -1.918,-5.98828 -4.4492,-5.98828 m 7.2968,15.65234 h -3.9023 l 0.293,-2.39453 c -1.5586,1.73437 -4.3399,3.01172 -6.5821,3.01172 -4.5742,0 -8.1562,-3.94532 -7.3711,-10.35157 0.7227,-5.88671 5.2149,-10.14843 10.1446,-10.14843 3.6211,0 5.4179,2.80859 5.5117,3.08593 h 0.062 l 0.2969,-2.42578 h 3.9062 z m 0,0"
     id="path94" />
  <path
     style="fill:#ffffff;fill-opacity:1;fill-rule:nonzero;stroke:none;opacity:1"
     d="m 730.8047,103.50781 h 3.9336 l -0.1992,1.66407 c 0.7929,-0.72657 2.4609,-2.32422 5.1484,-2.32422 1.5352,0 3.7852,0.72656 5.0195,2.66797 1.3711,2.10937 0.9766,5.33593 0.793,6.82421 l -1.2773,10.38672 h -4.2539 l 1.164,-9.48437 c 0.1953,-1.59766 0.7539,-6.16406 -2.8281,-6.16406 -0.7656,0 -2.1953,0.41015 -3.1211,1.6914 -0.9141,1.17969 -1.1641,3.1836 -1.3594,4.81641 l -1.1211,9.14062 h -4.2539 z m 0,0"
     id="path96" />
  <path
     style="fill:#ffffff;fill-opacity:1;fill-rule:nonzero;stroke:none;opacity:1"
     d="m 762.7891,111.47656 c -0.098,-3.08593 -2.1328,-4.5039 -4.2461,-4.5039 -1.5703,0 -4.3399,0.93359 -5.5782,4.5039 z m -10.1524,3.70313 c 0.039,1.24609 1.3711,3.94531 4.4141,3.94531 1.8867,0 3.4023,-0.86328 4.3945,-2.45703 h 4.4844 c -1.4492,3.46094 -5.2383,6.68359 -9.3945,6.68359 -5.2813,0 -8.8164,-4.57422 -8.1289,-10.18359 0.6679,-5.43359 5.1484,-10.42188 10.621,-10.42188 5.6368,0 8.5391,5.26172 7.9454,10.11719 -0.1094,0.89844 -0.336,1.69141 -0.5391,2.31641 z m 0,0"
     id="path98" />
  <path
     style="fill:#ffffff;fill-opacity:1;fill-rule:nonzero;stroke:none;opacity:1"
     d="m 681.0547,122.71484 h 4.2578 L 687.6719,103.5 h -4.2578 z m 0,0"
     id="path100" />
  <path
     style="fill:#ffffff;fill-opacity:1;fill-rule:nonzero;stroke:none;opacity:1"
     d="m 689.0781,98.363281 c -0.1914,1.558594 -1.6054,2.816409 -3.1562,2.816409 -1.5547,0 -2.6602,-1.257815 -2.4688,-2.816409 0.1875,-1.550781 1.6016,-2.8125 3.1563,-2.8125 1.5508,0 2.6601,1.261719 2.4687,2.8125"
     id="path102" />
  <path
     style="fill:#ffffff;fill-opacity:1;fill-rule:nonzero;stroke:none;opacity:1"
     d="m 720.3359,122.71484 h 4.2618 L 726.957,103.5 h -4.2578 z m 0,0"
     id="path104" />
  <path
     style="fill:#ffffff;fill-opacity:1;fill-rule:nonzero;stroke:none;opacity:1"
     d="m 759.7148,80.574219 c 0.1133,-0.933594 0.9805,-1.699219 1.9219,-1.699219 h 5.3946 c 0.9414,0 1.6132,0.765625 1.5,1.699219 l -0.039,0.34375 c -0.1172,0.933593 -0.9805,1.699219 -1.9258,1.699219 h -5.3906 c -0.9453,0 -1.6211,-0.765626 -1.5039,-1.699219 z m 0,0"
     id="path106" />
  <path
     style="fill:#ffffff;fill-opacity:1;fill-rule:nonzero;stroke:none"
     d="m 568.5156,97.449219 c 0,-0.01172 0,-0.01953 -0.012,-0.02734 -0.062,-0.121094 -0.1289,-0.179687 -0.1601,-0.191406 -0.3594,-0.261719 -1.0391,-0.08203 -1.1055,0.5 -0.051,0.550781 0.3789,0.914062 0.9023,0.960937 0.2813,0.02734 0.3672,-0.230468 0.3985,-0.503906 0.039,-0.207031 0.039,-0.363281 0.031,-0.484375 0,-0.0039 -0.023,-0.199219 -0.055,-0.253906"
     id="path108" />
  <path
     id="path112"
     d="m 341.38281,139.70312 c -8.73437,-1.23046 -14.51172,-3.64062 -19.28125,-8.16015 -5.3789,-5.08594 -8.69922,-12.44922 -9.71484,-21.69141 -0.17578,-1.3789 -0.25,-11.453122 -0.28516,-24.773435 V 62.65625 h 18.91797 l 0.0742,23.46875 c 0.0742,23.28906 0.11328,23.46484 0.64844,25.45313 1.625,5.73828 4.84375,9.14062 10.03515,10.54687 2.20313,0.57031 7.14453,0.60938 9.56641,0.0352 2.57031,-0.65625 5.01953,-2.02344 6.60937,-3.75 1.66407,-1.8125 2.52344,-3.36719 3.42969,-6.28516 l 0.72266,-2.27344 0.0703,-23.617185 0.0742,-23.578125 h 18.92187 l -0.0742,23.976562 c -0.0742,23.539068 -0.10938,24.011718 -0.64844,26.820318 -2.85547,14.33593 -10.94141,22.71093 -24.73047,25.67578 -2.0625,0.4375 -3.65234,0.53906 -8.05078,0.61328 -3.03125,0.0352 -5.85156,0.0352 -6.28516,0 z m 75.41797,0 c -11.58984,-1.15625 -21.11719,-3.53906 -27.94141,-6.96875 l -1.55078,-0.79296 1.51563,-4.26172 c 3.39062,-9.74219 4.07422,-11.65625 4.14844,-11.73047 0.0742,-0.0742 1.40625,0.50781 3.03125,1.26562 4.94531,2.375 10.87109,4.1875 16.97265,5.16016 3.9375,0.61719 13.28906,0.79297 15.77735,0.28516 4.29687,-0.89844 6.35546,-2.8086 6.35546,-5.91407 0,-3.97656 -3.5,-5.92578 -15.48828,-8.70703 -12.46093,-2.88281 -17.47656,-4.72265 -21.98828,-8.191404 -5.09375,-3.863281 -7.25781,-9.203125 -6.96875,-16.929687 0.14844,-3.542969 0.64453,-5.566407 2.0586,-8.382813 3.35546,-6.636718 10.11328,-11.007812 19.89062,-12.8125 3.82813,-0.71875 14.66016,-0.65625 19.92969,0.140625 6.92969,1.050781 14.01172,3.066407 18.44531,5.3125 l 1.73828,0.859375 -0.35937,0.945313 c -1.23047,3.425781 -5.34375,14.039062 -5.48828,14.222656 -0.11329,0.109375 -1.1211,-0.25 -2.23829,-0.792969 -3.71484,-1.878906 -8.80859,-3.394531 -14.51171,-4.300781 -3.42969,-0.535156 -11.48829,-0.757813 -13.86329,-0.394531 -5.09375,0.792968 -7.66406,3.03125 -7.15234,6.246094 0.25781,1.515624 0.79297,2.347656 2.13281,3.179687 1.73047,1.117187 3.92969,1.800781 13.75391,4.261719 4.79687,1.191406 9.89062,2.558594 11.36719,3.105468 9.53906,3.316407 15.20703,8.585938 17.1914,15.914068 0.75782,2.85546 0.79688,8.52343 0,11.58984 -2.27343,9.20703 -9.5,15.09375 -21.15625,17.25781 -2.20703,0.39844 -12.92968,0.71875 -15.60156,0.43359 z M 29.08203,138.22656 c 0,-0.0742 8.66797,-17.12109 19.24219,-37.83984 L 67.53125,62.65625 h 16.39844 l 19.16797,37.58984 c 10.53515,20.6875 19.20703,37.73047 19.28125,37.86719 0.0351,0.14844 -4.05079,0.22266 -10.58594,0.22266 H 101.18359 L 88.36328,112.51953 C 81.28516,98.332031 75.48047,86.707031 75.37109,86.707031 c -0.14843,0 -11.26953,22.488279 -11.26953,22.820309 0,0.10157 3.42969,0.17579 7.61719,0.17579 h 7.625 l 3.75391,7.72656 c 2.08593,4.26172 3.75,7.875 3.75,8.05078 0,0.25 -3.25391,0.32031 -15.41407,0.32031 H 55.97656 l -3.0664,6.28516 -3.10547,6.25 H 39.44141 c -5.69922,0 -10.35938,-0.0391 -10.35938,-0.10938 z m 97.16016,-37.73047 V 62.65625 h 18.41015 v 75.67969 h -18.41015 z m 30.79687,37.51563 c -0.0742,-0.1836 -0.0742,-17.15234 -0.0742,-37.76563 l 0.0742,-37.441402 h 21.98438 c 24.30078,0 24.15234,-0.03516 29.32031,1.664062 11.55078,3.753906 17.82812,13.789062 16.57031,26.535156 -0.98047,9.851564 -5.88672,16.312504 -14.73047,19.382814 -1.33984,0.43359 -2.42187,0.86719 -2.46093,0.94141 -0.0352,0.0742 3.57812,5.85156 8.01562,12.84765 4.40625,7.00781 8.23438,13.07813 8.48438,13.4375 l 0.43359,0.72266 H 203.57422 L 190.97656,118.1875 178.37109,98.074219 188.66406,97.9375 c 8.84766,-0.148438 10.5,-0.222656 11.73047,-0.621094 4.14844,-1.332031 6.17578,-4.1875 6.17578,-8.84375 0,-3.542968 -1.08203,-5.890625 -3.46875,-7.507812 -2.45703,-1.660156 -2.78125,-1.699219 -15.8125,-1.699219 h -11.6914 v 59.070315 h -9.21485 c -7.14453,0 -9.24219,-0.0742 -9.34375,-0.32422 z m 76.57422,-37.51563 V 62.621094 l 24.11328,0.109375 c 21.87891,0.07422 24.26172,0.148437 26,0.546875 5.26953,1.21875 9.09375,3.167968 11.98828,6.0625 3.89844,3.898437 5.58985,8.660156 5.33985,14.90625 -0.25782,6.140625 -2.63282,10.6875 -7.25391,13.867187 l -1.33984,0.941407 2.09765,1.007812 c 2.88282,1.44141 5.98828,4.54688 7.54297,7.51172 1.625,3.17187 2.16016,5.44531 2.16016,9.42187 0.0391,4.00782 -0.39453,5.88672 -2.01172,9.24219 -3.14453,6.46094 -10.07813,10.71875 -19.14453,11.80078 -1.51563,0.22266 -10.35938,0.29688 -25.87891,0.29688 h -23.61328 z m 46.60938,21.23047 c 1.6289,-0.62109 3.24609,-2.13672 4.07812,-3.78906 0.46875,-0.98047 0.58203,-1.62891 0.58203,-3.36328 0,-1.95313 -0.0742,-2.33984 -0.75781,-3.57031 -0.90625,-1.66407 -2.13672,-2.67188 -3.90234,-3.36328 -1.30469,-0.46094 -2.02344,-0.5 -14.66016,-0.5 h -13.28906 v 15.09375 h 13.28906 c 12.67187,0 13.35547,-0.0352 14.66016,-0.50782 z m -0.98047,-30.261716 c 1.30468,-0.570313 2.60937,-1.800782 3.29297,-3.09375 0.43359,-0.796875 0.53515,-1.488282 0.53515,-2.96875 0.0352,-1.652344 -0.0664,-2.089844 -0.75781,-3.28125 -0.79688,-1.476563 -2.27344,-2.632813 -3.92969,-3.105469 -0.54297,-0.148437 -6.07031,-0.257813 -13.5039,-0.257813 h -12.60547 v 13.328126 l 13.0039,-0.07422 c 11.83985,-0.07422 13.07032,-0.109375 13.96485,-0.546874 z m 0,0"
     style="fill:#ffffff;fill-opacity:1;fill-rule:nonzero;stroke:none;opacity:1" />
</svg>
