<?xml version="1.0" encoding="UTF-8" standalone="no"?>
<svg
   xmlns:dc="http://purl.org/dc/elements/1.1/"
   xmlns:cc="http://creativecommons.org/ns#"
   xmlns:rdf="http://www.w3.org/1999/02/22-rdf-syntax-ns#"
   xmlns:svg="http://www.w3.org/2000/svg"
   xmlns="http://www.w3.org/2000/svg"
   xmlns:xlink="http://www.w3.org/1999/xlink"
   xmlns:sodipodi="http://sodipodi.sourceforge.net/DTD/sodipodi-0.dtd"
   xmlns:inkscape="http://www.inkscape.org/namespaces/inkscape"
   width="600"
   height="600"
   viewBox="0 0 158.75 158.75"
   version="1.1"
   id="svg8"
   inkscape:version="1.0.2 (e86c870879, 2021-01-15)"
   sodipodi:docname="singularity-docker-spack.svg">
  <defs
     id="defs2">
    <marker
       id="barrow"
       markerWidth="4"
       markerHeight="3"
       refX="0.050000001"
       refY="1.5"
       orient="auto"
       markerUnits="strokeWidth">
      <path
         d="M 0,0 V 3 L 4,1.5 Z"
         fill="#ffa600"
         id="path4-3" />
    </marker>
    <marker
       id="marker909"
       markerWidth="4"
       markerHeight="3"
       refX="0.050000001"
       refY="1.5"
       orient="auto"
       markerUnits="strokeWidth">
      <path
         d="M 0,0 V 3 L 4,1.5 Z"
         fill="#ffa600"
         id="path907" />
    </marker>
    <marker
       id="marker913"
       markerWidth="4"
       markerHeight="3"
       refX="0.050000001"
       refY="1.5"
       orient="auto"
       markerUnits="strokeWidth">
      <path
         d="M 0,0 V 3 L 4,1.5 Z"
         fill="#ffa600"
         id="path911" />
    </marker>
    <marker
       id="farrow"
       markerWidth="4"
       markerHeight="3"
       refX="0.050000001"
       refY="1.5"
       orient="auto"
       markerUnits="strokeWidth">
      <path
         d="M 0,0 V 3 L 4,1.5 Z"
         fill="#ffffff"
         id="path7" />
    </marker>
    <marker
       id="marker919"
       markerWidth="4"
       markerHeight="3"
       refX="0.050000001"
       refY="1.5"
       orient="auto"
       markerUnits="strokeWidth">
      <path
         d="M 0,0 V 3 L 4,1.5 Z"
         fill="#ffffff"
         id="path917" />
    </marker>
    <marker
       id="marker923"
       markerWidth="4"
       markerHeight="3"
       refX="0.050000001"
       refY="1.5"
       orient="auto"
       markerUnits="strokeWidth">
      <path
         d="M 0,0 V 3 L 4,1.5 Z"
         fill="#ffffff"
         id="path921" />
    </marker>
    <marker
       id="marker927"
       markerWidth="4"
       markerHeight="3"
       refX="0.050000001"
       refY="1.5"
       orient="auto"
       markerUnits="strokeWidth">
      <path
         d="M 0,0 V 3 L 4,1.5 Z"
         fill="#ffffff"
         id="path925" />
    </marker>
    <marker
       id="barrow-6"
       markerWidth="4"
       markerHeight="3"
       refX="0.050000001"
       refY="1.5"
       orient="auto"
       markerUnits="strokeWidth">
      <path
         d="M 0,0 V 3 L 4,1.5 Z"
         fill="#ffa600"
         id="path4-7" />
    </marker>
    <marker
       id="marker958"
       markerWidth="4"
       markerHeight="3"
       refX="0.050000001"
       refY="1.5"
       orient="auto"
       markerUnits="strokeWidth">
      <path
         d="M 0,0 V 3 L 4,1.5 Z"
         fill="#ffa600"
         id="path956" />
    </marker>
    <marker
       id="marker962"
       markerWidth="4"
       markerHeight="3"
       refX="0.050000001"
       refY="1.5"
       orient="auto"
       markerUnits="strokeWidth">
      <path
         d="M 0,0 V 3 L 4,1.5 Z"
         fill="#ffa600"
         id="path960" />
    </marker>
    <marker
       id="farrow-5"
       markerWidth="4"
       markerHeight="3"
       refX="0.050000001"
       refY="1.5"
       orient="auto"
       markerUnits="strokeWidth">
      <path
         d="M 0,0 V 3 L 4,1.5 Z"
         fill="#ffffff"
         id="path7-3" />
    </marker>
    <marker
       id="marker968"
       markerWidth="4"
       markerHeight="3"
       refX="0.050000001"
       refY="1.5"
       orient="auto"
       markerUnits="strokeWidth">
      <path
         d="M 0,0 V 3 L 4,1.5 Z"
         fill="#ffffff"
         id="path966" />
    </marker>
    <marker
       id="marker972"
       markerWidth="4"
       markerHeight="3"
       refX="0.050000001"
       refY="1.5"
       orient="auto"
       markerUnits="strokeWidth">
      <path
         d="M 0,0 V 3 L 4,1.5 Z"
         fill="#ffffff"
         id="path970" />
    </marker>
    <marker
       id="marker976"
       markerWidth="4"
       markerHeight="3"
       refX="0.050000001"
       refY="1.5"
       orient="auto"
       markerUnits="strokeWidth">
      <path
         d="M 0,0 V 3 L 4,1.5 Z"
         fill="#ffffff"
         id="path974" />
    </marker>
    <clipPath
       id="a">
      <path
         d="M 76,2 V 48 H 54 V 71 H 35.58 c -0.077,0.666 -0.14,1.333 -0.205,2 -1.151,12.531 1.036,24.088 6.063,33.969 L 43.124,110 c 1.011,1.817 2.191,3.523 3.438,5.188 1.244,1.662 1.685,2.582 2.468,3.687 C 62.32,133.811 82.13,141 105,141 155.648,141 198.633,118.562 217.656,68.156 231.153,69.541 244.1,66.08 250,54.562 240.601,49.139 228.522,50.877 221.562,54.375 L 240,2 168,48 H 145 V 2 Z"
         id="path2-5" />
    </clipPath>
    <clipPath
       id="clipPath906">
      <path
         d="M 76,2 V 48 H 54 V 71 H 35.58 c -0.077,0.666 -0.14,1.333 -0.205,2 -1.151,12.531 1.036,24.088 6.063,33.969 L 43.124,110 c 1.011,1.817 2.191,3.523 3.438,5.188 1.244,1.662 1.685,2.582 2.468,3.687 C 62.32,133.811 82.13,141 105,141 155.648,141 198.633,118.562 217.656,68.156 231.153,69.541 244.1,66.08 250,54.562 240.601,49.139 228.522,50.877 221.562,54.375 L 240,2 168,48 H 145 V 2 Z"
         id="path904" />
    </clipPath>
    <clipPath
       id="clipPath910">
      <path
         d="M 76,2 V 48 H 54 V 71 H 35.58 c -0.077,0.666 -0.14,1.333 -0.205,2 -1.151,12.531 1.036,24.088 6.063,33.969 L 43.124,110 c 1.011,1.817 2.191,3.523 3.438,5.188 1.244,1.662 1.685,2.582 2.468,3.687 C 62.32,133.811 82.13,141 105,141 155.648,141 198.633,118.562 217.656,68.156 231.153,69.541 244.1,66.08 250,54.562 240.601,49.139 228.522,50.877 221.562,54.375 L 240,2 168,48 H 145 V 2 Z"
         id="path908" />
    </clipPath>
    <clipPath
       id="clipPath914">
      <path
         d="M 76,2 V 48 H 54 V 71 H 35.58 c -0.077,0.666 -0.14,1.333 -0.205,2 -1.151,12.531 1.036,24.088 6.063,33.969 L 43.124,110 c 1.011,1.817 2.191,3.523 3.438,5.188 1.244,1.662 1.685,2.582 2.468,3.687 C 62.32,133.811 82.13,141 105,141 155.648,141 198.633,118.562 217.656,68.156 231.153,69.541 244.1,66.08 250,54.562 240.601,49.139 228.522,50.877 221.562,54.375 L 240,2 168,48 H 145 V 2 Z"
         id="path912" />
    </clipPath>
    <clipPath
       id="clipPath918">
      <path
         d="M 76,2 V 48 H 54 V 71 H 35.58 c -0.077,0.666 -0.14,1.333 -0.205,2 -1.151,12.531 1.036,24.088 6.063,33.969 L 43.124,110 c 1.011,1.817 2.191,3.523 3.438,5.188 1.244,1.662 1.685,2.582 2.468,3.687 C 62.32,133.811 82.13,141 105,141 155.648,141 198.633,118.562 217.656,68.156 231.153,69.541 244.1,66.08 250,54.562 240.601,49.139 228.522,50.877 221.562,54.375 L 240,2 168,48 H 145 V 2 Z"
         id="path916" />
    </clipPath>
  </defs>
  <sodipodi:namedview
     id="base"
     pagecolor="#ffffff"
     bordercolor="#666666"
     borderopacity="1.0"
     inkscape:pageopacity="0.0"
     inkscape:pageshadow="2"
     inkscape:zoom="0.7"
     inkscape:cx="600.01195"
     inkscape:cy="397.16326"
     inkscape:document-units="mm"
     inkscape:current-layer="layer1"
     inkscape:document-rotation="0"
     showgrid="false"
     units="px"
     inkscape:window-width="1920"
     inkscape:window-height="1029"
     inkscape:window-x="0"
     inkscape:window-y="0"
     inkscape:window-maximized="1" />
  <metadata
     id="metadata5">
    <rdf:RDF>
      <cc:Work
         rdf:about="">
        <dc:format>image/svg+xml</dc:format>
        <dc:type
           rdf:resource="http://purl.org/dc/dcmitype/StillImage" />
        <dc:title></dc:title>
      </cc:Work>
    </rdf:RDF>
  </metadata>
  <g
     inkscape:label="Vrstva 1"
     inkscape:groupmode="layer"
     id="layer1">
    <g
       transform="matrix(0.17546234,0,0,-0.17546234,-3.7861198,84.946135)"
       id="g22">
      <path
         d="M 11.593552,235.39323 H 230.20557 c 0,-123.48204 -97.87594,-223.584003 -218.612018,-223.584003 z"
         transform="translate(239,14)"
         fill="#5a0046"
         opacity="0.744649"
         id="path2" />
      <path
         d="m 17.4834,2.3853 5.853,0.2273 5.8143,0.3765 5.7739,0.524 11.4193,1.4829 11.236,2.0506 11.0385,2.6036 10.8266,3.142 10.6005,3.6657 10.3599,4.1748 10.1052,4.6691 9.8361,5.1489 9.5527,5.6138 9.255,6.0642 8.943,6.4999 8.6166,6.9209 8.2761,7.3272 7.9211,7.7189 7.5519,8.0959 7.1684,8.4582 6.7705,8.8059 6.3583,9.1388 5.9319,9.4572 5.4912,9.7608 5.0361,10.0498 4.5667,10.3241 4.083,10.5837 3.585,10.8287 3.0727,11.0589 2.5462,11.2746 2.0052,11.4755 1.45,11.6618 0.8805,11.8334 0.2967,11.9903 -0.193,1.9146 -0.5535,1.7832 -0.8759,1.6137 -1.1601,1.406 -1.4059,1.16 -1.6138,0.8759 -1.7832,0.5536 -1.9146,0.193 H 11.5935 l -1.9146,-0.193 -1.7832,-0.5536 -1.6137,-0.8759 -1.406,-1.16 -1.16,-1.406 -0.8759,-1.6137 -0.5536,-1.7832 -0.193,-1.9146 V 11.8092 L 2.2865,9.8946 2.8401,8.1113 3.716,6.4976 4.876,5.0917 6.282,3.9316 7.8957,3.0557 9.6789,2.5022 11.5935,2.3092 Z m -5.8899,233.0079 h 218.612 l -0.2844,-11.5056 -0.8443,-11.3546 -1.3902,-11.1895 -1.9225,-11.0103 -2.4411,-10.8171 -2.9458,-10.61 -3.437,-10.3886 -3.9143,-10.1533 -4.3779,-9.9039 -4.8278,-9.6405 -5.2639,-9.3631 -5.6863,-9.0715 -6.0949,-8.7659 -6.4899,-8.4463 -6.8711,-8.1127 -7.2386,-7.7649 -7.5922,-7.4032 -7.9323,-7.0273 -8.2584,-6.6375 -8.571,-6.2336 -8.8698,-5.8156 L 115.797,38.7946 106.3709,33.857 96.6872,29.3795 86.7596,25.3762 76.602,21.8611 66.2281,18.8482 55.6514,16.3516 44.886,14.3854 33.9453,12.9635 22.8432,12.1001 11.5935,11.8092 Z"
         transform="translate(239,14)"
         fill="#ffffff"
         opacity="1"
         id="path4" />
      <path
         d="M 11.593552,11.393227 V 234.97724 c 120.736088,0 218.612028,-100.10197 218.612028,-223.584013 z"
         transform="translate(239,238)"
         fill="#ad8100"
         opacity="0.763277"
         id="path6" />
      <path
         d="m 232.1201,2.0862 1.7833,0.5535 1.6137,0.8759 1.4059,1.1601 1.1601,1.4059 0.8759,1.6137 0.5535,1.7833 0.193,1.9146 -0.2966,11.9903 -0.8806,11.8334 -1.45,11.6618 -2.0052,11.4755 -2.5461,11.2745 -3.0728,11.059 -3.585,10.8287 -4.083,10.5837 -4.5667,10.3241 -5.0361,10.0497 -5.4912,9.7608 -5.9319,9.4572 -6.3583,9.1389 -6.7705,8.8058 -7.1684,8.4583 -7.5519,8.0959 -7.9211,7.7189 -8.2761,7.3272 -8.6166,6.9209 -8.943,6.4999 -9.255,6.0642 -9.5527,5.6138 -9.8361,5.1488 -10.1052,4.6692 -10.3599,4.1747 -10.6005,3.6657 -10.8266,3.1421 -11.0385,2.6036 -11.236,2.0506 -11.4193,1.4829 -5.7739,0.5239 -5.8143,0.3766 -5.853,0.2272 -5.8899,0.0762 -1.9146,-0.193 -1.7832,-0.5536 -1.6137,-0.8759 -1.406,-1.16 -1.16,-1.406 -0.8759,-1.6137 -0.5536,-1.7832 -0.193,-1.9146 V 11.3932 L 2.2865,9.4786 2.8401,7.6953 3.716,6.0816 4.876,4.6757 6.282,3.5156 7.8957,2.6397 9.6789,2.0862 11.5935,1.8932 h 218.612 z m -220.5266,9.307 v 223.584 l 11.2497,-0.2909 11.1021,-0.8634 10.9407,-1.4219 10.7655,-1.9662 10.5766,-2.4966 10.3739,-3.0129 10.1576,-3.5151 9.9276,-4.0033 9.6837,-4.4775 9.4261,-4.9376 9.1548,-5.3836 8.8698,-5.8156 8.571,-6.2336 8.2585,-6.6375 7.9322,-7.0274 7.5923,-7.4032 7.2385,-7.7649 6.8711,-8.1126 6.4899,-8.4463 6.0949,-8.766 5.6863,-9.0715 5.2639,-9.363 4.8278,-9.6405 4.3779,-9.9039 3.9143,-10.1533 3.437,-10.3887 2.9458,-10.6099 2.4411,-10.8171 1.9225,-11.0104 1.3903,-11.1895 0.8442,-11.3545 0.2844,-11.5056 z"
         transform="translate(239,238)"
         fill="#ffffff"
         opacity="1"
         id="path8" />
      <path
         d="M 230.59355,235.39323 V 11.809227 c -120.73608,0 -218.612013,100.101963 -218.612013,223.584003 z"
         transform="translate(20,14)"
         fill="#001563"
         opacity="0.764338"
         id="path10" />
      <path
         d="m 232.5081,2.5022 1.7832,0.5535 1.6137,0.8759 1.406,1.1601 1.1601,1.4059 0.8758,1.6137 0.5536,1.7833 0.193,1.9146 v 223.584 l -0.193,1.9146 -0.5536,1.7832 -0.8758,1.6137 -1.1601,1.406 -1.406,1.16 -1.6137,0.8759 -1.7832,0.5536 -1.9146,0.193 H 11.9815 l -1.9146,-0.193 -1.7832,-0.5536 -1.6138,-0.8759 -1.4059,-1.16 -1.1601,-1.406 -0.8759,-1.6137 -0.5535,-1.7832 -0.193,-1.9146 0.2967,-11.9903 0.8805,-11.8334 1.45,-11.6618 2.0052,-11.4755 2.5462,-11.2746 3.0727,-11.0589 3.585,-10.8287 4.0831,-10.5837 4.5667,-10.3241 5.036,-10.0498 5.4912,-9.7608 5.9319,-9.4572 6.3583,-9.1388 6.7705,-8.8059 7.1684,-8.4582 7.5519,-8.0959 7.9211,-7.7189 8.2761,-7.3272 8.6166,-6.9209 8.943,-6.4999 9.255,-6.0642 9.5527,-5.6138 9.8361,-5.1489 10.1052,-4.6691 10.3599,-4.1748 10.6005,-3.6657 10.8266,-3.142 11.0385,-2.6036 11.236,-2.0506 11.4193,-1.4829 5.7739,-0.524 5.8143,-0.3765 5.853,-0.2273 5.8899,-0.0761 z m -13.1643,9.5979 -11.1021,0.8634 -10.9407,1.4219 -10.7654,1.9662 -10.5766,2.4966 -10.374,3.0129 -10.1576,3.5151 -9.9276,4.0033 -9.6836,4.4775 -9.4262,4.9376 -9.1548,5.3836 -8.8698,5.8156 -8.571,6.2336 -8.2584,6.6375 -7.9323,7.0273 -7.5922,7.4032 -7.2386,7.7649 -6.8711,8.1127 -6.4898,8.4463 -6.095,8.7659 -5.6863,9.0715 -5.2639,9.3631 -4.8278,9.6405 -4.3779,9.9039 -3.9143,10.1533 -3.4369,10.3886 -2.9459,10.61 -2.4411,10.8171 -1.9225,11.0103 -1.3902,11.1895 -0.8443,11.3546 -0.2844,11.5056 h 218.612 V 11.8092 Z"
         transform="translate(20,14)"
         fill="#ffffff"
         opacity="1"
         id="path12" />
      <path
         d="M 230.59355,11.393227 H 11.981537 c 0,123.482033 97.875933,223.584003 218.612013,223.584003 z"
         transform="translate(20,238)"
         fill="#005c0c"
         opacity="0.789943"
         id="path14" />
      <path
         d="m 232.5081,2.0862 1.7832,0.5535 1.6137,0.8759 1.406,1.1601 1.1601,1.4059 0.8758,1.6137 0.5536,1.7833 0.193,1.9146 v 223.584 l -0.193,1.9146 -0.5536,1.7832 -0.8758,1.6137 -1.1601,1.406 -1.406,1.16 -1.6137,0.8759 -1.7832,0.5536 -1.9146,0.193 -5.8899,-0.0762 -5.853,-0.2272 -5.8143,-0.3766 -5.7739,-0.5239 -11.4193,-1.4829 -11.236,-2.0506 -11.0385,-2.6036 -10.8266,-3.1421 -10.6005,-3.6657 -10.3599,-4.1748 -10.1052,-4.6691 -9.8361,-5.1488 -9.5527,-5.6139 -9.255,-6.0642 -8.943,-6.4998 -8.6166,-6.9209 -8.2761,-7.3273 -7.9211,-7.7189 -7.5519,-8.0958 -7.1684,-8.4583 -6.7705,-8.8058 -6.3583,-9.1389 -5.9319,-9.4572 -5.4912,-9.7608 -5.036,-10.0498 -4.5667,-10.324 L 16.3178,91.5164 12.7328,80.6877 9.6601,69.6287 7.1139,58.3542 5.1087,46.8787 3.6587,35.2169 2.7782,23.3835 2.4815,11.3932 2.6745,9.4786 3.228,7.6953 4.1039,6.0816 5.264,4.6757 6.6699,3.5156 8.2837,2.6397 10.0669,2.0862 11.9815,1.8932 h 218.612 z m -220.5266,9.307 0.2844,11.5056 0.8443,11.3545 1.3902,11.1895 1.9225,11.0104 2.4411,10.8171 2.9459,10.6099 3.4369,10.3887 3.9143,10.1533 4.3779,9.9039 4.8278,9.6405 5.2639,9.363 5.6863,9.0715 6.095,8.7659 6.4898,8.4464 6.8711,8.1126 7.2386,7.7649 7.5922,7.4032 7.9323,7.0274 8.2584,6.6375 8.571,6.2335 8.8698,5.8157 9.1548,5.3836 9.4262,4.9376 9.6836,4.4774 9.9276,4.0034 10.1576,3.5151 10.374,3.0129 10.5766,2.4965 10.7654,1.9663 10.9407,1.4218 11.1021,0.8635 11.2497,0.2909 V 11.3932 Z"
         transform="translate(20,238)"
         fill="#ffffff"
         opacity="1"
         id="path16" />
      <path
         d="m 350.28622,180.39323 c 0,98.06449 -77.76485,177.56147 -173.69267,177.56147 -95.927813,0 -173.692671,-79.49698 -173.692671,-177.56147 0,-98.0645 77.764858,-177.561481 173.692671,-177.561481 95.92782,0 173.69267,79.496981 173.69267,177.561481 z"
         transform="translate(74,69)"
         fill="#ffffff"
         opacity="1"
         id="path18" />
      <path
         d="m 124.93448,244.66294 q 12.01148,0 24.33094,-1.15494 12.31947,-1.15495 25.4089,-3.31086 13.08943,-2.15591 24.17695,-4.92779 11.08751,-2.77188 20.32711,-6.31372 l -25.87087,-74.07078 q -12.16547,16.32329 -27.10282,25.3319 -14.93735,9.00861 -31.26064,9.00861 -9.70158,0 -14.01339,-3.92683 -4.31182,-3.92683 -4.31182,-9.77858 0,-5.54376 8.39264,-10.62554 8.39263,-5.08178 25.94787,-11.70349 45.73601,-16.78527 59.13343,-33.41654 13.08943,-16.32329 13.08943,-40.346249 0,-37.420373 -28.41177,-57.362506 -28.41176,-19.942133 -84.61932,-19.942133 -29.258724,0 -55.591579,4.003826 -26.332855,4.003826 -51.74175,13.705404 L 28.226686,98.369307 Q 39.006218,81.430044 55.483501,71.112492 71.806791,60.794941 87.052128,60.794941 q 7.545672,0 12.550455,3.772836 5.004787,3.772836 5.004787,9.470588 0,6.775706 -7.0067,11.780488 -7.006696,5.004782 -21.790053,10.702535 -36.342419,13.705402 -49.89383,29.720712 -13.397418,16.16929 -13.397418,39.57627 0,39.2683 28.334768,59.05644 28.334768,19.78813 84.080343,19.78813 z"
         transform="translate(137,126)"
         fill="#000000"
         opacity="1"
         id="path20" />
    </g>
    <g
       id="g1209"
       transform="matrix(1.1630594,0,0,1.1630594,-217.03634,-143.20217)">
      <rect
         x="310.56049"
         y="-98.3619"
         width="51.329166"
         height="51.329166"
         rx="6.8791666"
         ry="6.8791666"
         transform="rotate(45)"
         class="diamond"
         id="rect12"
         style="fill:#0f3a80;stroke-width:0.264583" />
      <line
         x1="286.24136"
         y1="165.1756"
         x2="277.21228"
         y2="175.2034"
         class="back"
         marker-end="url(#barrow-6)"
         id="line14"
         style="stroke:#ffa600;stroke-width:1.85208;marker-end:url(#barrow-6)" />
      <line
         x1="267.98514"
         y1="186.34227"
         x2="278.64917"
         y2="197.00632"
         class="back"
         marker-end="url(#barrow-6)"
         id="line16"
         style="stroke:#ffa600;stroke-width:1.85208;marker-end:url(#barrow-6)" />
      <line
         x1="286.24136"
         y1="165.1756"
         x2="286.24136"
         y2="193.7506"
         class="back"
         marker-end="url(#barrow-6)"
         id="line18"
         style="stroke:#ffa600;stroke-width:1.85208;marker-end:url(#barrow-6)" />
      <circle
         cx="286.24136"
         cy="165.1756"
         r="6.0854168"
         class="back"
         id="circle20"
         style="fill:#ffa600;stroke:#0f3a80;stroke-width:1.5875" />
      <circle
         cx="289.15179"
         cy="207.50893"
         r="6.0854168"
         class="back"
         id="circle22"
         style="fill:#ffa600;stroke:#0f3a80;stroke-width:1.5875" />
      <circle
         cx="267.98514"
         cy="186.34225"
         r="6.0854168"
         class="back"
         id="circle24"
         style="fill:#ffa600;stroke:#0f3a80;stroke-width:1.5875" />
      <line
         x1="293.84634"
         y1="165.35263"
         x2="279.68307"
         y2="181.08253"
         class="shadow"
         id="line26"
         style="stroke:#0f3a80;stroke-width:1.85208" />
      <line
         x1="292.45544"
         y1="165.52968"
         x2="279.1774"
         y2="180.27646"
         class="front"
         marker-end="url(#farrow-5)"
         id="line28"
         style="stroke:#ffffff;stroke-width:1.85208;marker-end:url(#farrow-5)" />
      <line
         x1="292.06219"
         y1="165.1756"
         x2="301.09128"
         y2="175.2034"
         class="front"
         marker-end="url(#farrow-5)"
         id="line30"
         style="stroke:#ffffff;stroke-width:1.85208;marker-end:url(#farrow-5)" />
      <line
         x1="310.31845"
         y1="186.34227"
         x2="299.65439"
         y2="197.00632"
         class="front"
         marker-end="url(#farrow-5)"
         id="line32"
         style="stroke:#ffffff;stroke-width:1.85208;marker-end:url(#farrow-5)" />
      <line
         x1="292.06219"
         y1="165.1756"
         x2="292.06219"
         y2="193.7506"
         class="front"
         marker-end="url(#farrow-5)"
         id="line34"
         style="stroke:#ffffff;stroke-width:1.85208;marker-end:url(#farrow-5)" />
      <circle
         cx="292.06219"
         cy="165.1756"
         r="6.0854168"
         class="front"
         id="circle36"
         style="fill:#ffffff;stroke:#0f3a80;stroke-width:1.5875" />
      <circle
         cx="310.31845"
         cy="186.34225"
         r="6.0854168"
         class="front"
         id="circle38"
         style="fill:#ffffff;stroke:#0f3a80;stroke-width:1.5875" />
    </g>
    <g
       id="g892"
       transform="matrix(0.40038094,0,0,0.40038094,4.4513071,90.88198)">
      <path
         d="m 147.488,45.732 h 22.866 v 23.374 h 11.561 c 5.34,0 10.831,-0.95 15.887,-2.664 2.485,-0.843 5.274,-2.015 7.724,-3.49 -3.228,-4.214 -4.876,-9.535 -5.36,-14.78 -0.66,-7.135 0.78,-16.42 5.608,-22.005 l 2.404,-2.78 2.864,2.303 c 7.211,5.793 13.276,13.889 14.345,23.118 8.683,-2.554 18.878,-1.95 26.532,2.467 l 3.14,1.812 -1.653,3.226 c -6.473,12.633 -20.005,16.546 -33.235,15.854 -19.797,49.308 -62.898,72.653 -115.157,72.653 -27,0 -51.77,-10.093 -65.876,-34.047 -0.827,-1.488 -1.535,-3.044 -2.286,-4.573 C 32.084,95.656 30.5,84.105 31.574,72.564 l 0.323,-3.457 H 51.45 V 45.732 H 74.316 V 22.866 h 45.732 V 0 h 27.44 v 45.732"
         fill="#394d54"
         id="path9" />
      <g
         clip-path="url(#a)"
         id="g28">
        <g
           id="d">
          <g
             id="c"
             transform="translate(0,-22.866)">
            <path
               d="m 123.859,3.811 h 19.818 v 19.817 h -19.818 z"
               fill="#00acd3"
               id="path11" />
            <path
               d="m 123.859,26.676 h 19.818 v 19.819 h -19.818 z"
               fill="#20c2ef"
               id="path13" />
            <path
               id="b"
               d="M 126.292,21.977 V 5.46 m 2.972,16.516 V 5.46 m 3.002,16.516 V 5.46 m 3.003,16.516 V 5.46 m 3.003,16.516 V 5.46 m 2.972,16.516 V 5.46"
               stroke="#394d54"
               stroke-width="1.56" />
            <use
               height="100%"
               width="100%"
               xlink:href="#b"
               transform="translate(0,22.866)"
               id="use16"
               x="0"
               y="0" />
          </g>
          <use
             height="100%"
             width="100%"
             xlink:href="#c"
             transform="matrix(1,0,0,-1,22.866,4.573)"
             id="use19"
             x="0"
             y="0" />
        </g>
        <use
           height="100%"
           width="100%"
           xlink:href="#d"
           transform="translate(-91.464,45.732)"
           id="use22"
           x="0"
           y="0" />
        <use
           height="100%"
           width="100%"
           xlink:href="#d"
           transform="translate(-45.732,45.732)"
           id="use24"
           x="0"
           y="0" />
        <use
           height="100%"
           width="100%"
           xlink:href="#d"
           transform="translate(0,45.732)"
           id="use26"
           x="0"
           y="0" />
      </g>
      <path
         clip-path="url(#a)"
         d="m 221.57,54.38 c 1.533,-11.916 -7.384,-21.275 -12.914,-25.719 -6.373,7.368 -7.363,26.678 2.635,34.808 -5.58,4.956 -17.337,9.448 -29.376,9.448 H 34 C 32.83,85.484 34,146 34,146 h 217 l -0.987,-91.424 c -9.398,-5.424 -21.484,-3.694 -28.443,-0.197"
         fill="#17b5eb"
         id="path30" />
      <path
         clip-path="url(#a)"
         d="m 34,89 v 57 H 251 V 89"
         fill-opacity="0.17"
         id="path32" />
      <path
         clip-path="url(#a)"
         d="M 111.237,140.89 C 97.697,134.465 90.266,125.73 86.131,116.196 L 45,118 l 21,28 45.237,-5.11"
         fill="#d4edf1"
         id="path34" />
      <path
         clip-path="url(#a)"
         d="m 222.5,53.938 v 0.03 c -20.861,26.89 -50.783,50.38 -82.906,62.72 -28.655,11.007 -53.639,11.06 -70.875,2.218 -1.856,-1.048 -3.676,-2.211 -5.5,-3.312 C 50.582,106.762 43.464,92.152 44.062,72.906 H 34 V 146 H 251 V 50 h -25 z"
         fill-opacity="0.085"
         id="path36" />
      <path
         d="m 45.625,117.03 c 14.165,0.776 29.282,0.915 42.469,-3.218"
         fill="none"
         stroke="#394d54"
         stroke-width="3.4"
         stroke-linecap="round"
         id="path38" />
      <path
         d="m 102.17,106.959 a 5.467,5.467 0 1 1 -10.933,0 5.467,5.467 0 0 1 10.933,0 z"
         fill="#d4edf1"
         id="path40" />
      <path
         d="m 98.121,103.307 a 1.598,1.598 0 0 0 0.798,2.981 c 0.605,0 1.13,-0.336 1.402,-0.831 a 3.915,3.915 0 1 1 -2.2,-2.15 z M 0,90.162 h 254.327 c -5.537,-1.405 -17.52,-3.302 -15.544,-10.56 -10.07,11.652 -34.353,8.174 -40.482,2.429 -6.824,9.898 -46.554,6.136 -49.325,-1.575 -8.556,10.04 -35.067,10.04 -43.623,0 -2.773,7.71 -42.502,11.473 -49.327,1.575 -6.128,5.745 -30.41,9.223 -40.48,-2.429 C 17.522,86.86 5.539,88.757 0,90.162"
         fill="#394d54"
         id="path42" />
    </g>
  </g>
</svg>
